   1.2537437e+01	   1.2874030e-06	
   2.6375369e+01	  -1.2013812e-06	
   4.0213559e+01	  -8.5915122e-07	
   5.4052514e+01	  -1.8498790e-06	
   6.7891568e+01	  -1.6566014e-06	
   8.1730247e+01	   1.9526556e-06	
   9.5568878e+01	  -3.2409004e-07	
   1.0940748e+02	  -2.2728370e-06	
   1.2340323e+02	  -2.2979172e-06	
   1.3724058e+02	  -2.9207334e-06	
   1.5107680e+02	  -4.6316124e-06	
   1.6491280e+02	  -4.1965027e-06	
   1.7874941e+02	  -3.5823603e-06	
   1.9175356e+02	  -4.9021309e-06	
   2.0559141e+02	  -2.4699195e-06	
   2.1942847e+02	  -2.0237515e-06	
   2.3326572e+02	  -4.5765738e-06	
   2.4626863e+02	  -4.8464127e-06	
   2.6010575e+02	  -7.7712417e-06	
   2.7310910e+02	  -3.0970559e-06	
   2.8694420e+02	  -3.3329966e-06	
   3.0077775e+02	  -7.3750222e-06	
   3.1461012e+02	  -7.2761132e-06	
   3.2844174e+02	  -4.8882456e-06	
   3.4227215e+02	  -4.1594449e-06	
   3.5610294e+02	  -3.7316228e-06	
   3.6909968e+02	  -2.6048020e-06	
   3.8292850e+02	  -5.4780892e-06	
   3.9675504e+02	  -6.6115014e-06	
   4.0974715e+02	  -6.5659363e-06	
   4.2357140e+02	  -5.3344750e-06	
   4.3739520e+02	  -4.4860386e-06	
   4.5121877e+02	  -3.7016153e-06	
   4.6504352e+02	  -2.6821260e-06	
   4.7803564e+02	  -1.7485602e-06	
   4.9186092e+02	  -5.0620421e-06	
   5.0568576e+02	  -8.2705486e-06	
   5.1951118e+02	  -5.9550231e-06	
   5.3333831e+02	  -5.0764031e-06	
   5.4716716e+02	  -4.9176880e-06	
   5.6099704e+02	  -4.0579162e-06	
   5.7482651e+02	  -8.1271672e-06	
   5.8865587e+02	  -9.5204243e-06	
   6.0248485e+02	  -4.7647024e-06	
   6.1631375e+02	  -6.4498442e-07	
   6.3014338e+02	  -4.1522265e-06	
   6.4397418e+02	  -5.0954042e-06	
   6.5780466e+02	  -1.1435997e-06	
   6.7163353e+02	   2.3411626e-07	
   6.8546241e+02	  -8.4416672e-07	
   6.9929210e+02	  -2.5405571e-08	
   7.1312273e+02	   5.2974075e-06	
   7.2695387e+02	   3.9072486e-06	
   7.4078547e+02	   1.5821150e-06	
   7.5461729e+02	   1.1709934e-06	
   7.6845008e+02	   2.0009260e-06	
   7.8228446e+02	   1.1729455e-06	
   7.9611965e+02	  -2.9329896e-06	
   8.0995474e+02	  -4.3149308e-06	
   8.2378923e+02	  -3.6829047e-06	
   8.3762324e+02	  -3.8699054e-06	
   8.5145612e+02	  -8.5269679e-06	
   8.6528759e+02	  -3.4710883e-07	
   8.7911873e+02	  -7.1626749e-07	
   8.9294964e+02	  -3.8094389e-06	
   9.0678011e+02	  -4.3836351e-06	
   9.2061170e+02	  -1.3187688e-06	
   9.3444265e+02	   1.0380619e-06	
   9.4827264e+02	   8.2118397e-06	
   9.6210330e+02	  -1.0723457e-06	
   9.7593455e+02	  -1.7094986e-06	
   9.8976601e+02	  -4.8163990e-07	
   1.0035976e+03	   3.8542254e-06	
   1.0175685e+03	  -5.5322221e-07	
   1.0313990e+03	   5.0758389e-07	
   1.0452292e+03	   4.0083701e-06	
   1.0590588e+03	   2.0631270e-06	
   1.0728871e+03	  -1.7271859e-06	
   1.0867155e+03	  -3.8814980e-06	
   1.1005427e+03	  -2.5968736e-06	
   1.1143701e+03	  -8.0241760e-08	
   1.1281978e+03	   1.5284112e-06	
   1.1411917e+03	   1.5450778e-06	
   1.1550191e+03	   6.1037127e-06	
   1.1688471e+03	   3.7633806e-06	
   1.1826765e+03	   3.3261240e-06	
   1.1965060e+03	   1.3248773e-06	
   1.2103347e+03	   2.0505834e-06	
   1.2241645e+03	   1.1373349e-05	
   1.2379955e+03	   8.9591805e-06	
   1.2518276e+03	   4.8600744e-06	
   1.2656597e+03	   6.2229699e-06	
   1.2794927e+03	   5.2389161e-06	
   1.2924927e+03	   3.0129125e-06	
   1.3063252e+03	   2.5168333e-06	
   1.3201572e+03	   7.0307224e-06	
   1.3339889e+03	   1.3623589e-05	
   1.3478197e+03	   4.5704164e-06	
   1.3616507e+03	   1.0532486e-06	
   1.3754820e+03	   4.9560959e-06	
   1.3893133e+03	   6.5569464e-06	
   1.4031442e+03	   8.6537735e-06	
   1.4169744e+03	   7.1965650e-06	
   1.4308042e+03	   1.1557332e-05	
   1.4446338e+03	   1.1955088e-05	
   1.4584637e+03	   1.1536859e-05	
   1.4722930e+03	   3.4826036e-06	
   1.4861222e+03	   6.3423376e-06	
   1.4999520e+03	   5.8381004e-06	
   1.5137814e+03	   9.8684641e-07	
   1.5276104e+03	   3.9057038e-07	
   1.5414393e+03	   1.8642894e-06	
   1.5552688e+03	  -7.8195939e-07	
   1.5690994e+03	   1.4484869e-07	
   1.5829315e+03	   5.4674508e-07	
   1.5967649e+03	   3.0607129e-06	
   1.6105987e+03	   1.1076990e-06	
   1.6244327e+03	  -6.7330340e-07	
   1.6382665e+03	  -2.6153145e-06	
   1.6521011e+03	  -2.8872841e-06	
   1.6659368e+03	  -6.0119055e-07	
   1.6797734e+03	   5.5695149e-07	
   1.6936106e+03	   1.1267128e-05	
   1.7066144e+03	   7.2343355e-06	
   1.7204515e+03	   4.6225087e-06	
   1.7342891e+03	   5.2287051e-06	
   1.7481251e+03	   1.5478131e-06	
   1.7619604e+03	   5.6598865e-06	
   1.7757959e+03	   3.7329645e-06	
   1.7896301e+03	   3.0139746e-06	
   1.8034638e+03	   2.9089579e-06	
   1.8172974e+03	   8.3693353e-07	
   1.8311314e+03	   5.1869321e-06	
   1.8449655e+03	   4.8739372e-06	
   1.8582335e+03	   2.1967224e-06	
   1.8720668e+03	   2.2186834e-06	
   1.8859008e+03	   5.9876826e-06	
   1.8997350e+03	   1.0688692e-05	
   1.9137094e+03	   5.4984298e-06	
   1.9275441e+03	   8.3514701e-06	
   1.9413792e+03	   6.0005304e-06	
   1.9552145e+03	   7.7875995e-06	
   1.9690512e+03	   9.8847490e-06	
   1.9828884e+03	   4.9739209e-06	
   1.9967257e+03	   5.2861038e-06	
   2.0105637e+03	   7.8973252e-06	
   2.0235677e+03	   9.9705457e-06	
   2.0374049e+03	   5.9167189e-06	
   2.0512423e+03	   7.4069073e-06	
   2.0642464e+03	   1.2903136e-05	
   2.0780846e+03	   8.4323652e-06	
   2.0910896e+03	   7.8316413e-06	
   2.1049285e+03	   6.2289086e-06	
   2.1187669e+03	   1.0654150e-05	
   2.1326054e+03	   6.6933982e-06	
   2.1464424e+03	   9.9565625e-06	
   2.1602786e+03	   1.2384683e-05	
   2.1741141e+03	   5.9917672e-06	
   2.1879643e+03	   3.0826564e-06	
   2.2017961e+03	   2.8465371e-06	
   2.2156273e+03	   2.0563787e-06	
   2.2294585e+03	   3.1022213e-06	
   2.2432889e+03	   3.8950221e-06	
   2.2571194e+03	   4.7058285e-06	
   2.2709500e+03	   7.4996391e-06	
   2.2847811e+03	   3.6094780e-06	
   2.2986124e+03	   4.3432793e-07	
   2.3124448e+03	   2.0242424e-06	
   2.3262773e+03	   4.7061588e-06	
   2.3401113e+03	   1.2661568e-06	
   2.3539471e+03	   2.7002559e-06	
   2.3677839e+03	   1.0944083e-06	
   2.3816217e+03	   3.5676156e-06	
   2.3954588e+03	   2.2037870e-06	
   2.4092957e+03	   4.2669474e-06	
   2.4231337e+03	   2.1841616e-06	
   2.4369702e+03	  -2.1970023e-07	
   2.4508060e+03	   9.9039724e-07	
   2.4646418e+03	  -1.1555007e-06	
   2.4784783e+03	  -5.6036341e-07	
   2.4923153e+03	  -1.3471987e-06	
   2.5061524e+03	   4.2597009e-07	
   2.5199922e+03	   8.0928714e-07	
   2.5338328e+03	   1.2896508e-06	
   2.5476738e+03	  -1.2296610e-07	
   2.5615146e+03	  -2.0305910e-06	
   2.5753547e+03	  -1.9522531e-06	
   2.5891951e+03	  -2.7429052e-06	
   2.6030357e+03	  -5.1045391e-06	
   2.6168762e+03	  -7.2141858e-06	
   2.6307161e+03	  -6.8158607e-06	
   2.6445557e+03	  -5.6235525e-06	
   2.6583951e+03	  -4.3982546e-06	
   2.6722326e+03	  -3.4710649e-06	
   2.6860693e+03	  -5.3789152e-06	
   2.6999047e+03	  -5.6888359e-06	
   2.7137398e+03	  -4.9227808e-06	
   2.7275746e+03	  -6.8307368e-06	
   2.7414103e+03	  -6.5026431e-06	
   2.7552457e+03	  -6.8275681e-06	
   2.7690803e+03	  -8.2555343e-06	
   2.7829147e+03	  -7.9095126e-06	
   2.7967489e+03	  -5.6865034e-06	
   2.8105824e+03	  -7.5795340e-06	
   2.8245560e+03	  -9.0178324e-06	
   2.8383908e+03	  -8.5487921e-06	
   2.8522260e+03	  -7.1077276e-06	
   2.8660604e+03	  -1.2293703e-05	
   2.8798947e+03	  -1.1959688e-05	
   2.8937295e+03	  -1.2768645e-05	
   2.9075653e+03	  -1.3029546e-05	
   2.9214026e+03	  -1.4688367e-05	
   2.9352390e+03	  -1.4830236e-05	
   2.9490764e+03	  -1.1336052e-05	
   2.9629150e+03	  -1.2144800e-05	
   2.9767536e+03	  -1.2644544e-05	
   2.9905919e+03	  -1.3755311e-05	
   3.0036784e+03	  -1.5812535e-05	
   3.0169312e+03	  -1.2179595e-05	
   3.0301841e+03	  -7.2276431e-06	
   3.0434369e+03	  -9.2767001e-06	
   3.0572727e+03	  -9.2996023e-06	
   3.0711063e+03	   2.1073749e-06	
   3.0841074e+03	   1.5899433e-05	
   3.0971944e+03	   3.2741232e-05	
   3.1101995e+03	   6.3118518e-05	
   3.1232046e+03	   9.9557798e-05	
   3.1362093e+03	   1.4938606e-04	
   3.1492115e+03	   2.1956118e-04	
   3.1622119e+03	   3.0038620e-04	
   3.1752118e+03	   3.8884120e-04	
   3.1882102e+03	   4.7169411e-04	
   3.2012086e+03	   5.5098102e-04	
   3.2142066e+03	   6.2805491e-04	
   3.2272050e+03	   7.0097582e-04	
   3.2402048e+03	   7.7688781e-04	
   3.2532055e+03	   8.4774785e-04	
   3.2662074e+03	   9.0840096e-04	
   3.2792108e+03	   9.6849215e-04	
   3.2922152e+03	   1.0271744e-03	
   3.3052209e+03	   1.0839017e-03	
   3.3182272e+03	   1.1313161e-03	
   3.3312324e+03	   1.1797693e-03	
   3.3442369e+03	   1.2236366e-03	
   3.3572416e+03	   1.2689158e-03	
   3.3702458e+03	   1.3210301e-03	
   3.3832501e+03	   1.3678523e-03	
   3.3962549e+03	   1.4050396e-03	
   3.4092598e+03	   1.4403609e-03	
   3.4222653e+03	   1.4752172e-03	
   3.4352711e+03	   1.5122225e-03	
   3.4482757e+03	   1.5494627e-03	
   3.4612804e+03	   1.5802610e-03	
   3.4742830e+03	   1.6145511e-03	
   3.4872852e+03	   1.6428163e-03	
   3.5002879e+03	   1.6707914e-03	
   3.5132905e+03	   1.6971016e-03	
   3.5262924e+03	   1.7253597e-03	
   3.5392933e+03	   1.7605137e-03	
   3.5522929e+03	   1.7864697e-03	
   3.5652926e+03	   1.8100487e-03	
   3.5782921e+03	   1.8307666e-03	
   3.5912908e+03	   1.8556156e-03	
   3.6042879e+03	   1.8815374e-03	
   3.6172836e+03	   1.9036822e-03	
   3.6302951e+03	   1.9239168e-03	
   3.6432902e+03	   1.9450255e-03	
   3.6562856e+03	   1.9653933e-03	
   3.6692818e+03	   1.9904031e-03	
   3.6822779e+03	   2.0097309e-03	
   3.6952733e+03	   2.0289476e-03	
   3.7082685e+03	   2.0469423e-03	
   3.7214043e+03	   2.0645908e-03	
   3.7344003e+03	   2.0837066e-03	
   3.7473972e+03	   2.1031624e-03	
   3.7603954e+03	   2.1216483e-03	
   3.7733935e+03	   2.1422172e-03	
   3.7863931e+03	   2.1623882e-03	
   3.7993930e+03	   2.1817462e-03	
   3.8123943e+03	   2.1966863e-03	
   3.8253960e+03	   2.2159814e-03	
   3.8383983e+03	   2.2289625e-03	
   3.8514003e+03	   2.2414106e-03	
   3.8644029e+03	   2.2623408e-03	
   3.8774055e+03	   2.2775719e-03	
   3.8904072e+03	   2.2948930e-03	
   3.9034079e+03	   2.3080000e-03	
   3.9164098e+03	   2.3243892e-03	
   3.9294122e+03	   2.3380443e-03	
   3.9424143e+03	   2.3494384e-03	
   3.9554174e+03	   2.3646726e-03	
   3.9684206e+03	   2.3771247e-03	
   3.9814236e+03	   2.3915139e-03	
   3.9944426e+03	   2.4053820e-03	
   4.0074448e+03	   2.4208621e-03	
   4.0204465e+03	   2.4334302e-03	
   4.0334474e+03	   2.4465442e-03	
   4.0464485e+03	   2.4607843e-03	
   4.0594499e+03	   2.4778334e-03	
   4.0724509e+03	   2.4974184e-03	
   4.0854524e+03	   2.5125345e-03	
   4.0984542e+03	   2.5245056e-03	
   4.1114565e+03	   2.5334477e-03	
   4.1244598e+03	   2.5444279e-03	
   4.1374640e+03	   2.5559262e-03	
   4.1504671e+03	   2.5667393e-03	
   4.1634692e+03	   2.5822714e-03	
   4.1764711e+03	   2.5917285e-03	
   4.1894730e+03	   2.6017396e-03	
   4.2024754e+03	   2.6132718e-03	
   4.2154781e+03	   2.6304579e-03	
   4.2284794e+03	   2.6430370e-03	
   4.2414797e+03	   2.6568000e-03	
   4.2544781e+03	   2.6646949e-03	
   4.2674763e+03	   2.6753508e-03	
   4.2804752e+03	   2.6874118e-03	
   4.2934747e+03	   2.7039797e-03	
   4.3064741e+03	   2.7115587e-03	
   4.3194731e+03	   2.7203747e-03	
   4.3324712e+03	   2.7302146e-03	
   4.3454699e+03	   2.7413775e-03	
   4.3584694e+03	   2.7504725e-03	
   4.3714699e+03	   2.7601335e-03	
   4.3844715e+03	   2.7689166e-03	
   4.3974744e+03	   2.7799377e-03	
   4.4104772e+03	   2.7911419e-03	
   4.4234798e+03	   2.8043120e-03	
   4.4364824e+03	   2.8167642e-03	
   4.4494846e+03	   2.8259413e-03	
   4.4624879e+03	   2.8334905e-03	
   4.4754917e+03	   2.8421537e-03	
   4.4884959e+03	   2.8515699e-03	
   4.5014999e+03	   2.8594021e-03	
   4.5145026e+03	   2.8652643e-03	
   4.5275030e+03	   2.8245223e-03	
   4.5405023e+03	   2.8637663e-03	
   4.5535009e+03	   2.8831062e-03	
   4.5664995e+03	   2.8919251e-03	
   4.5794976e+03	   2.9030730e-03	
   4.5924941e+03	   2.9121938e-03	
   4.6054901e+03	   2.9228496e-03	
   4.6186260e+03	   2.9284541e-03	
   4.6316217e+03	   2.9372739e-03	
   4.6446168e+03	   2.9455826e-03	
   4.6576110e+03	   2.9538993e-03	
   4.6706052e+03	   2.9654300e-03	
   4.6835993e+03	   2.9714556e-03	
   4.6965942e+03	   2.9769294e-03	
   4.7095901e+03	   2.9922081e-03	
   4.7225859e+03	   3.0046629e-03	
   4.7355828e+03	   3.0150547e-03	
   4.7485819e+03	   3.0174737e-03	
   4.7615829e+03	   3.0216147e-03	
   4.7745841e+03	   3.0307358e-03	
   4.7875852e+03	   3.0354129e-03	
   4.8005874e+03	   3.0435510e-03	
   4.8135901e+03	   3.0521431e-03	
   4.8265919e+03	   3.0581802e-03	
   4.8395921e+03	   3.0638112e-03	
   4.8525921e+03	   3.0730252e-03	
   4.8655918e+03	   3.0790102e-03	
   4.8785908e+03	   3.0880942e-03	
   4.8915891e+03	   3.0940971e-03	
   4.9045875e+03	   3.1022830e-03	
   4.9175846e+03	   3.1081818e-03	
   4.9305811e+03	   3.1137266e-03	
   4.9435778e+03	   3.1205235e-03	
   4.9565755e+03	   3.1275173e-03	
   4.9695736e+03	   3.1326972e-03	
   4.9825711e+03	   3.1376531e-03	
   4.9955688e+03	   3.1453620e-03	
   5.0085663e+03	   3.1524348e-03	
   5.0215639e+03	   3.1572637e-03	
   5.0345610e+03	   3.1632265e-03	
   5.0475581e+03	   3.1697474e-03	
   5.0605547e+03	   3.1760922e-03	
   5.0735509e+03	   3.1830050e-03	
   5.0865465e+03	   3.1893647e-03	
   5.0995430e+03	   3.1991535e-03	
   5.1125409e+03	   3.2033714e-03	
   5.1255400e+03	   3.2053104e-03	
   5.1385395e+03	   3.2087654e-03	
   5.1515395e+03	   3.2148504e-03	
   5.1645401e+03	   3.2184174e-03	
   5.1775410e+03	   3.2247564e-03	
   5.1905426e+03	   3.2332105e-03	
   5.2035435e+03	   3.2429766e-03	
   5.2165453e+03	   3.2414247e-03	
   5.2295479e+03	   3.2443068e-03	
   5.2425503e+03	   3.2494120e-03	
   5.2555520e+03	   3.2532141e-03	
   5.2685531e+03	   3.2557221e-03	
   5.2815536e+03	   3.2601651e-03	
   5.2945534e+03	   3.2659741e-03	
   5.3075531e+03	   3.2701411e-03	
   5.3205526e+03	   3.2740171e-03	
   5.3335535e+03	   3.2799941e-03	
   5.3465561e+03	   3.2879013e-03	
   5.3595600e+03	   3.2966795e-03	
   5.3725636e+03	   3.3013567e-03	
   5.3855674e+03	   3.3055159e-03	
   5.3985712e+03	   3.3038901e-03	
   5.4115738e+03	   3.3114993e-03	
   5.4245760e+03	   3.3137774e-03	
   5.4375954e+03	   3.3172035e-03	
   5.4505987e+03	   3.3190016e-03	
   5.4636018e+03	   3.3243338e-03	
   5.4766038e+03	   3.3299279e-03	
   5.4896045e+03	   3.3359720e-03	
   5.5026038e+03	   3.3393629e-03	
   5.5157433e+03	   3.3439176e-03	
   5.5287413e+03	   3.3496595e-03	
   5.5417386e+03	   3.3493934e-03	
   5.5547357e+03	   3.3530052e-03	
   5.5677333e+03	   3.3616421e-03	
   5.5807311e+03	   3.3521139e-03	
   5.5937288e+03	   3.3514378e-03	
   5.6067266e+03	   3.3639677e-03	
   5.6197255e+03	   3.3591666e-03	
   5.6327239e+03	   3.3724605e-03	
   5.6457209e+03	   3.3765304e-03	
   5.6587182e+03	   3.3814532e-03	
   5.6717174e+03	   3.3811192e-03	
   5.6847181e+03	   3.3852712e-03	
   5.6977191e+03	   3.3907303e-03	
   5.7107208e+03	   3.3968604e-03	
   5.7237230e+03	   3.4004755e-03	
   5.7367257e+03	   3.4026827e-03	
   5.7497293e+03	   3.4036159e-03	
   5.7627330e+03	   3.4032611e-03	
   5.7757368e+03	   3.4072523e-03	
   5.7887402e+03	   3.4141575e-03	
   5.8017432e+03	   3.4196576e-03	
   5.8147460e+03	   3.4157448e-03	
   5.8277492e+03	   3.4199560e-03	
   5.8407510e+03	   3.4214851e-03	
   5.8537528e+03	   3.4260582e-03	
   5.8667538e+03	   3.4279002e-03	
   5.8797554e+03	   3.4310833e-03	
   5.8927562e+03	   3.4320573e-03	
   5.9057551e+03	   3.4355343e-03	
   5.9187534e+03	   3.4379052e-03	
   5.9317517e+03	   3.4393261e-03	
   5.9447512e+03	   3.4446891e-03	
   5.9577513e+03	   3.4528561e-03	
   5.9707527e+03	   3.4501982e-03	
   5.9837514e+03	   3.4518621e-03	
   5.9967512e+03	   3.4563631e-03	
   6.0097513e+03	   3.4623371e-03	
   6.0227508e+03	   3.4635190e-03	
   6.0357493e+03	   3.4661590e-03	
   6.0487480e+03	   3.4734099e-03	
   6.0617468e+03	   3.4779008e-03	
   6.0747446e+03	   3.4785277e-03	
   6.0877431e+03	   3.4816216e-03	
   6.1007424e+03	   3.4879486e-03	
   6.1137428e+03	   3.4941566e-03	
   6.1267431e+03	   3.4915026e-03	
   6.1397441e+03	   3.4922717e-03	
   6.1527451e+03	   3.4964087e-03	
   6.1657461e+03	   3.5046028e-03	
   6.1787475e+03	   3.5072119e-03	
   6.1917498e+03	   3.5035260e-03	
   6.2047527e+03	   3.5086982e-03	
   6.2177554e+03	   3.5168693e-03	
   6.2307575e+03	   3.5144534e-03	
   6.2437586e+03	   3.5159495e-03	
   6.2567589e+03	   3.5190615e-03	
   6.2697595e+03	   3.5291625e-03	
   6.2827595e+03	   3.5302305e-03	
   6.2957590e+03	   3.5315205e-03	
   6.3087580e+03	   3.5316645e-03	
   6.3217563e+03	   3.5339304e-03	
   6.3347548e+03	   3.5411933e-03	
   6.3477544e+03	   3.5413473e-03	
   6.3607551e+03	   3.5404963e-03	
   6.3737559e+03	   3.5398013e-03	
   6.3867564e+03	   3.5443034e-03	
   6.3997561e+03	   3.5456724e-03	
   6.4128956e+03	   3.5492131e-03	
   6.4258950e+03	   3.5503210e-03	
   6.4388939e+03	   3.5519700e-03	
   6.4518930e+03	   3.5546609e-03	
   6.4648922e+03	   3.5616219e-03	
   6.4778923e+03	   3.5635749e-03	
   6.4908919e+03	   3.5664679e-03	
   6.5038921e+03	   3.5672259e-03	
   6.5168936e+03	   3.5684759e-03	
   6.5298943e+03	   3.5705000e-03	
   6.5428941e+03	   3.5750170e-03	
   6.5558947e+03	   3.5747690e-03	
   6.5688950e+03	   3.5766710e-03	
   6.5818953e+03	   3.5806850e-03	
   6.5948960e+03	   3.5832751e-03	
   6.6078972e+03	   3.5850882e-03	
   6.6208980e+03	   3.5862332e-03	
   6.6338972e+03	   3.5872261e-03	
   6.6468965e+03	   3.5873241e-03	
   6.6598945e+03	   3.5907420e-03	
   6.6728925e+03	   3.5936719e-03	
   6.6858913e+03	   3.5970188e-03	
   6.6989079e+03	   3.5979937e-03	
   6.7119067e+03	   3.6033637e-03	
   6.7249050e+03	   3.6051946e-03	
   6.7379025e+03	   3.6017984e-03	
   6.7509001e+03	   3.6026873e-03	
   6.7638974e+03	   3.6030982e-03	
   6.7768956e+03	   3.6044001e-03	
   6.7898936e+03	   3.6087530e-03	
   6.8028916e+03	   3.6110828e-03	
   6.8158899e+03	   3.6161168e-03	
   6.8288893e+03	   3.6181567e-03	
   6.8418889e+03	   3.6235337e-03	
   6.8548880e+03	   3.6212787e-03	
   6.8678884e+03	   3.6231907e-03	
   6.8808881e+03	   3.6282037e-03	
   6.8938876e+03	   3.6305626e-03	
   6.9068866e+03	   3.6308216e-03	
   6.9198859e+03	   3.6323435e-03	
   6.9328855e+03	   3.6325765e-03	
   6.9458840e+03	   3.6335794e-03	
   6.9588794e+03	   3.6367702e-03	
   6.9718740e+03	   3.6372149e-03	
   6.9848685e+03	   3.6422386e-03	
   6.9978632e+03	   3.6444823e-03	
   7.0108582e+03	   3.6454000e-03	
   7.0238534e+03	   3.6503898e-03	
   7.0368483e+03	   3.6468895e-03	
   7.0498438e+03	   3.6470362e-03	
   7.0628567e+03	   3.6466099e-03	
   7.0758537e+03	   3.6490258e-03	
   7.0888514e+03	   3.6566796e-03	
   7.1018494e+03	   3.6590235e-03	
   7.1148484e+03	   3.6620545e-03	
   7.1278464e+03	   3.6644774e-03	
   7.1408437e+03	   3.6617442e-03	
   7.1538416e+03	   3.6644101e-03	
   7.1668383e+03	   3.6661099e-03	
   7.1798354e+03	   3.6662648e-03	
   7.1928317e+03	   3.6661246e-03	
   7.2058268e+03	   3.6682123e-03	
   7.2188228e+03	   3.6691971e-03	
   7.2318192e+03	   3.6718769e-03	
   7.2448158e+03	   3.6718187e-03	
   7.2578134e+03	   3.6732176e-03	
   7.2708116e+03	   3.6781335e-03	
   7.2838092e+03	   3.6813083e-03	
   7.2968053e+03	   3.6811161e-03	
   7.3099427e+03	   3.6840387e-03	
   7.3229410e+03	   3.6844466e-03	
   7.3359402e+03	   3.6887886e-03	
   7.3489396e+03	   3.6915055e-03	
   7.3619374e+03	   3.6928074e-03	
   7.3749356e+03	   3.6987323e-03	
   7.3879344e+03	   3.6985362e-03	
   7.4009335e+03	   3.7009522e-03	
   7.4139319e+03	   3.6981151e-03	
   7.4269298e+03	   3.7032760e-03	
   7.4399282e+03	   3.7054019e-03	
   7.4529270e+03	   3.7065688e-03	
   7.4659264e+03	   3.7107548e-03	
   7.4789264e+03	   3.7090428e-03	
   7.4919273e+03	   3.7110448e-03	
   7.5049290e+03	   3.7099699e-03	
   7.5179313e+03	   3.7120061e-03	
   7.5309327e+03	   3.7158002e-03	
   7.5439347e+03	   3.7166253e-03	
   7.5569370e+03	   3.7152374e-03	
   7.5699381e+03	   3.7163124e-03	
   7.5829389e+03	   3.7175135e-03	
   7.5959564e+03	   3.7181945e-03	
   7.6089569e+03	   3.7207185e-03	
   7.6219577e+03	   3.7196315e-03	
   7.6349586e+03	   3.7194546e-03	
   7.6479590e+03	   3.7242736e-03	
   7.6609592e+03	   3.7257466e-03	
   7.6739582e+03	   3.7251936e-03	
   7.6869574e+03	   3.7285145e-03	
   7.6999573e+03	   3.7267505e-03	
   7.7129572e+03	   3.7282985e-03	
   7.7259567e+03	   3.7284225e-03	
   7.7389569e+03	   3.7306965e-03	
   7.7519565e+03	   3.7312945e-03	
   7.7649542e+03	   3.7327043e-03	
   7.7779508e+03	   3.7320022e-03	
   7.7909480e+03	   3.7331990e-03	
   7.8039447e+03	   3.7429728e-03	
   7.8169412e+03	   3.7428096e-03	
   7.8299375e+03	   3.7458664e-03	
   7.8429334e+03	   3.7490752e-03	
   7.8559296e+03	   3.7530000e-03	
   7.8689252e+03	   3.7508068e-03	
   7.8819199e+03	   3.7594395e-03	
   7.8949137e+03	   3.7591281e-03	
   7.9079091e+03	   3.7627099e-03	
   7.9209048e+03	   3.7647196e-03	
   7.9339001e+03	   3.7651674e-03	
   7.9468953e+03	   3.7675421e-03	
   7.9598902e+03	   3.7710418e-03	
   7.9728835e+03	   3.7715235e-03	
   7.9858780e+03	   3.7700162e-03	
   7.9988723e+03	   3.7713658e-03	
   8.0118665e+03	   3.7739085e-03	
   8.0248597e+03	   3.7739991e-03	
   8.0378527e+03	   3.7749208e-03	
   8.0508457e+03	   3.7755744e-03	
   8.0638397e+03	   3.7779220e-03	
   8.0768332e+03	   3.7785647e-03	
   8.0898270e+03	   3.7836213e-03	
   8.1028222e+03	   3.7887561e-03	
   8.1158186e+03	   3.7898229e-03	
   8.1288144e+03	   3.7885207e-03	
   8.1418082e+03	   3.7911293e-03	
   8.1548027e+03	   3.7920360e-03	
   8.1677984e+03	   3.7940608e-03	
   8.1807948e+03	   3.7955976e-03	
   8.1937917e+03	   3.7960384e-03	
   8.2067886e+03	   3.7985432e-03	
   8.2199252e+03	   3.7982028e-03	
   8.2329217e+03	   3.8014706e-03	
   8.2459181e+03	   3.8021544e-03	
   8.2589150e+03	   3.8043802e-03	
   8.2719109e+03	   3.8036140e-03	
   8.2849051e+03	   3.8038987e-03	
   8.2978984e+03	   3.8078453e-03	
   8.3108929e+03	   3.8086030e-03	
   8.3238874e+03	   3.8097887e-03	
   8.3368829e+03	   3.8095184e-03	
   8.3498794e+03	   3.8109242e-03	
   8.3628757e+03	   3.8129820e-03	
   8.3758724e+03	   3.8153199e-03	
   8.3888684e+03	   3.8197986e-03	
   8.4018635e+03	   3.8172854e-03	
   8.4148584e+03	   3.8201371e-03	
   8.4278529e+03	   3.8234728e-03	
   8.4408453e+03	   3.8271434e-03	
   8.4538377e+03	   3.8261839e-03	
   8.4668325e+03	   3.8254287e-03	
   8.4798291e+03	   3.8246335e-03	
   8.4928254e+03	   3.8258713e-03	
   8.5058219e+03	   3.8274601e-03	
   8.5188191e+03	   3.8293349e-03	
   8.5318177e+03	   3.8276649e-03	
   8.5448153e+03	   3.8271187e-03	
   8.5578122e+03	   3.8266725e-03	
   8.5708091e+03	   3.8259774e-03	
   8.5838067e+03	   3.8249512e-03	
   8.5968042e+03	   3.8194391e-03	
   8.6098010e+03	   3.7930399e-03	
   8.6227974e+03	   3.7841007e-03	
   8.6357946e+03	   3.8007996e-03	
   8.6487926e+03	   3.7894385e-03	
   8.6617904e+03	   3.8026394e-03	
   8.6747881e+03	   3.7982112e-03	
   8.6877868e+03	   3.8007792e-03	
   8.7007857e+03	   3.8018391e-03	
   8.7137858e+03	   3.8044041e-03	
   8.7267867e+03	   3.8075681e-03	
   8.7397870e+03	   3.8147492e-03	
   8.7527884e+03	   3.8172952e-03	
   8.7657912e+03	   3.8230604e-03	
   8.7787935e+03	   3.8191165e-03	
   8.7917956e+03	   3.8217296e-03	
   8.8047970e+03	   3.8241237e-03	
   8.8177974e+03	   3.8286107e-03	
   8.8307975e+03	   3.8337608e-03	
   8.8437984e+03	   3.8389858e-03	
   8.8567997e+03	   3.8456409e-03	
   8.8698004e+03	   3.8416899e-03	
   8.8828021e+03	   3.8406410e-03	
   8.8958056e+03	   3.8406732e-03	
   8.9088084e+03	   3.8443404e-03	
   8.9218116e+03	   3.8441565e-03	
   8.9348146e+03	   3.8500367e-03	
   8.9478169e+03	   3.8491738e-03	
   8.9608193e+03	   3.8530910e-03	
   8.9738226e+03	   3.8524151e-03	
   8.9868252e+03	   3.8511353e-03	
   8.9998271e+03	   3.8568554e-03	
   9.0128292e+03	   3.8589025e-03	
   9.0258303e+03	   3.8601746e-03	
   9.0388306e+03	   3.8616746e-03	
   9.0518310e+03	   3.8644216e-03	
   9.0648307e+03	   3.8665356e-03	
   9.0778301e+03	   3.8756116e-03	
   9.0908291e+03	   3.8679995e-03	
   9.1038290e+03	   3.8681015e-03	
   9.1169709e+03	   3.8752043e-03	
   9.1299739e+03	   3.8760555e-03	
   9.1429774e+03	   3.8760197e-03	
   9.1559810e+03	   3.8757989e-03	
   9.1689839e+03	   3.8783600e-03	
   9.1819864e+03	   3.8750642e-03	
   9.1949883e+03	   3.8779763e-03	
   9.2079905e+03	   3.8783424e-03	
   9.2209923e+03	   3.8778565e-03	
   9.2339936e+03	   3.8807156e-03	
   9.2469955e+03	   3.8833777e-03	
   9.2599973e+03	   3.8789728e-03	
   9.2730004e+03	   3.8840030e-03	
   9.2860037e+03	   3.8846051e-03	
   9.2990053e+03	   3.8858142e-03	
   9.3120065e+03	   3.8869373e-03	
   9.3250098e+03	   3.8880045e-03	
   9.3380146e+03	   3.8969697e-03	
   9.3510188e+03	   3.8942070e-03	
   9.3640239e+03	   3.8938853e-03	
   9.3770307e+03	   3.8947516e-03	
   9.3900377e+03	   3.8979200e-03	
   9.4030440e+03	   3.8957504e-03	
   9.4160502e+03	   3.8952757e-03	
   9.4290564e+03	   3.8994241e-03	
   9.4420627e+03	   3.9012334e-03	
   9.4550689e+03	   3.9041407e-03	
   9.4680742e+03	   3.9099210e-03	
   9.4810793e+03	   3.9111033e-03	
   9.4940848e+03	   3.9089936e-03	
   9.5070886e+03	   3.9086528e-03	
   9.5200915e+03	   3.9134300e-03	
   9.5330945e+03	   3.9158692e-03	
   9.5460973e+03	   3.9161983e-03	
   9.5590988e+03	   3.9161814e-03	
   9.5720984e+03	   3.9175844e-03	
   9.5850973e+03	   3.9176713e-03	
   9.5980956e+03	   3.9181422e-03	
   9.6110938e+03	   3.9168551e-03	
   9.6240927e+03	   3.9163871e-03	
   9.6370911e+03	   3.9166460e-03	
   9.6500895e+03	   3.9174229e-03	
   9.6630880e+03	   3.9206208e-03	
   9.6760867e+03	   3.9202717e-03	
   9.6890847e+03	   3.9204376e-03	
   9.7020826e+03	   3.9225855e-03	
   9.7150804e+03	   3.9250004e-03	
   9.7280799e+03	   3.9306764e-03	
   9.7410800e+03	   3.9275674e-03	
   9.7540800e+03	   3.9242234e-03	
   9.7670810e+03	   3.9260284e-03	
   9.7800828e+03	   3.9268235e-03	
   9.7930846e+03	   3.9263676e-03	
   9.8060857e+03	   3.9274717e-03	
   9.8190867e+03	   3.9297607e-03	
   9.8320884e+03	   3.9296618e-03	
   9.8450900e+03	   3.9309609e-03	
   9.8580905e+03	   3.9322960e-03	
   9.8710910e+03	   3.9326440e-03	
   9.8840917e+03	   3.9336780e-03	
   9.8970912e+03	   3.9356130e-03	
   9.9100900e+03	   3.9357189e-03	
   9.9230894e+03	   3.9420309e-03	
   9.9360890e+03	   3.9537829e-03	
   9.9490891e+03	   3.9609409e-03	
   9.9620898e+03	   3.9678599e-03	
   9.9750908e+03	   3.9740910e-03	
   9.9880920e+03	   3.9494160e-03	
   1.0001094e+04	   3.9482302e-03	
   1.0014238e+04	   3.9593971e-03	
   1.0027242e+04	   3.9609633e-03	
   1.0040247e+04	   3.9563276e-03	
   1.0053253e+04	   3.9557519e-03	
   1.0066259e+04	   3.9531573e-03	
   1.0079266e+04	   3.9526567e-03	
   1.0092274e+04	   3.9579231e-03	
   1.0105280e+04	   3.9635384e-03	
   1.0118285e+04	   3.9613797e-03	
   1.0131290e+04	   3.9575150e-03	
   1.0144296e+04	   3.9570483e-03	
   1.0157302e+04	   3.9587526e-03	
   1.0170307e+04	   3.9602859e-03	
   1.0183311e+04	   3.9606941e-03	
   1.0196314e+04	   3.9607143e-03	
   1.0209316e+04	   3.9569494e-03	
   1.0222316e+04	   3.9578864e-03	
   1.0235314e+04	   3.9582013e-03	
   1.0248311e+04	   3.9598042e-03	
   1.0261309e+04	   3.9612630e-03	
   1.0274305e+04	   3.9647328e-03	
   1.0287303e+04	   3.9630837e-03	
   1.0300300e+04	   3.9623295e-03	
   1.0313297e+04	   3.9640524e-03	
   1.0326295e+04	   3.9671572e-03	
   1.0339293e+04	   3.9714911e-03	
   1.0352292e+04	   3.9692351e-03	
   1.0365292e+04	   3.9686411e-03	
   1.0378293e+04	   3.9720592e-03	
   1.0391296e+04	   3.9714423e-03	
   1.0404299e+04	   3.9705385e-03	
   1.0417304e+04	   3.9734277e-03	
   1.0430309e+04	   3.9703790e-03	
   1.0443313e+04	   3.9719343e-03	
   1.0456318e+04	   3.9750245e-03	
   1.0469322e+04	   3.9738118e-03	
   1.0482326e+04	   3.9726480e-03	
   1.0495348e+04	   3.9842962e-03	
   1.0508354e+04	   3.9814415e-03	
   1.0521358e+04	   3.9817528e-03	
   1.0534362e+04	   3.9839969e-03	
   1.0547364e+04	   3.9873030e-03	
   1.0560365e+04	   3.9882292e-03	
   1.0573366e+04	   3.9833202e-03	
   1.0586366e+04	   3.9859632e-03	
   1.0599366e+04	   3.9868442e-03	
   1.0612365e+04	   3.9879751e-03	
   1.0625364e+04	   3.9854511e-03	
   1.0638362e+04	   3.9848040e-03	
   1.0651361e+04	   3.9846499e-03	
   1.0664360e+04	   3.9884959e-03	
   1.0677360e+04	   3.9878118e-03	
   1.0690361e+04	   3.9899219e-03	
   1.0703363e+04	   3.9915220e-03	
   1.0716365e+04	   3.9969181e-03	
   1.0729368e+04	   3.9955573e-03	
   1.0742370e+04	   3.9980214e-03	
   1.0755373e+04	   3.9974196e-03	
   1.0768376e+04	   3.9979808e-03	
   1.0781381e+04	   3.9998750e-03	
   1.0794385e+04	   4.0014042e-03	
   1.0807388e+04	   4.0047474e-03	
   1.0820391e+04	   4.0041496e-03	
   1.0833395e+04	   4.0039878e-03	
   1.0846399e+04	   4.0048760e-03	
   1.0859402e+04	   4.0054442e-03	
   1.0872406e+04	   4.0081664e-03	
   1.0885411e+04	   4.0057017e-03	
   1.0898417e+04	   4.0138440e-03	
   1.0911562e+04	   4.0202270e-03	
   1.0924567e+04	   4.0192083e-03	
   1.0937573e+04	   4.0188306e-03	
   1.0950580e+04	   4.0220740e-03	
   1.0963586e+04	   4.0221804e-03	
   1.0976592e+04	   4.0234267e-03	
   1.0989597e+04	   4.0225159e-03	
   1.1002601e+04	   4.0220001e-03	
   1.1015604e+04	   4.0204444e-03	
   1.1028609e+04	   4.0215646e-03	
   1.1041613e+04	   4.0240218e-03	
   1.1054617e+04	   4.0241310e-03	
   1.1067622e+04	   4.0198643e-03	
   1.1080627e+04	   4.0199816e-03	
   1.1093631e+04	   4.0268348e-03	
   1.1106635e+04	   4.0239981e-03	
   1.1119638e+04	   4.0258622e-03	
   1.1132639e+04	   4.0251863e-03	
   1.1145639e+04	   4.0216863e-03	
   1.1158639e+04	   4.0258002e-03	
   1.1171638e+04	   4.0239322e-03	
   1.1184639e+04	   4.0227122e-03	
   1.1197639e+04	   4.0250873e-03	
   1.1210640e+04	   4.0249913e-03	
   1.1223642e+04	   4.0260775e-03	
   1.1236645e+04	   4.0313026e-03	
   1.1249647e+04	   4.0299077e-03	
   1.1262647e+04	   4.0370947e-03	
   1.1275647e+04	   4.0370897e-03	
   1.1288648e+04	   4.0352327e-03	
   1.1301649e+04	   4.0353498e-03	
   1.1314652e+04	   4.0350610e-03	
   1.1327656e+04	   4.0359642e-03	
   1.1340661e+04	   4.0364205e-03	
   1.1353667e+04	   4.0354398e-03	
   1.1366673e+04	   4.0347861e-03	
   1.1379678e+04	   4.0365874e-03	
   1.1392684e+04	   4.0408888e-03	
   1.1405690e+04	   4.0393001e-03	
   1.1418696e+04	   4.0395734e-03	
   1.1431701e+04	   4.0375757e-03	
   1.1444706e+04	   4.0416190e-03	
   1.1457712e+04	   4.0383093e-03	
   1.1470717e+04	   4.0374396e-03	
   1.1483722e+04	   4.0398708e-03	
   1.1496728e+04	   4.0401372e-03	
   1.1509732e+04	   4.0397814e-03	
   1.1522735e+04	   4.0396535e-03	
   1.1535737e+04	   4.0381947e-03	
   1.1548738e+04	   4.0400928e-03	
   1.1561739e+04	   4.0395808e-03	
   1.1574739e+04	   4.0422268e-03	
   1.1587741e+04	   4.0430709e-03	
   1.1600743e+04	   4.0438890e-03	
   1.1613744e+04	   4.0460101e-03	
   1.1626746e+04	   4.0468612e-03	
   1.1639748e+04	   4.0489973e-03	
   1.1652751e+04	   4.0537124e-03	
   1.1665754e+04	   4.0514346e-03	
   1.1678758e+04	   4.0576568e-03	
   1.1691761e+04	   4.0565340e-03	
   1.1704765e+04	   4.0569352e-03	
   1.1717768e+04	   4.0551264e-03	
   1.1730770e+04	   4.0583025e-03	
   1.1743773e+04	   4.0615557e-03	
   1.1756776e+04	   4.0598408e-03	
   1.1769780e+04	   4.0574471e-03	
   1.1782784e+04	   4.0549083e-03	
   1.1795789e+04	   4.0557155e-03	
   1.1808933e+04	   4.0623295e-03	
   1.1821936e+04	   4.0644997e-03	
   1.1834940e+04	   4.0638169e-03	
   1.1847943e+04	   4.0607971e-03	
   1.1860947e+04	   4.0618273e-03	
   1.1873952e+04	   4.0632036e-03	
   1.1886957e+04	   4.0613018e-03	
   1.1899963e+04	   4.0613381e-03	
   1.1912966e+04	   4.0620213e-03	
   1.1925967e+04	   4.0633194e-03	
   1.1938968e+04	   4.0652515e-03	
   1.1951969e+04	   4.0662585e-03	
   1.1964968e+04	   4.0651435e-03	
   1.1977968e+04	   4.0696855e-03	
   1.1990968e+04	   4.0686814e-03	
   1.2003967e+04	   4.0719244e-03	
   1.2016968e+04	   4.0700374e-03	
   1.2029968e+04	   4.0700025e-03	
   1.2042969e+04	   4.0733305e-03	
   1.2055970e+04	   4.0742676e-03	
   1.2068973e+04	   4.0735277e-03	
   1.2081975e+04	   4.0755789e-03	
   1.2094978e+04	   4.0763070e-03	
   1.2107981e+04	   4.0753772e-03	
   1.2121001e+04	   4.0811063e-03	
   1.2134006e+04	   4.0833505e-03	
   1.2147010e+04	   4.0867728e-03	
   1.2160014e+04	   4.0861080e-03	
   1.2173017e+04	   4.0867322e-03	
   1.2186021e+04	   4.0924784e-03	
   1.2199025e+04	   4.0919626e-03	
   1.2212028e+04	   4.0929697e-03	
   1.2225030e+04	   4.0919219e-03	
   1.2238030e+04	   4.0907049e-03	
   1.2251030e+04	   4.0906549e-03	
   1.2264031e+04	   4.0935289e-03	
   1.2277032e+04	   4.0931390e-03	
   1.2290035e+04	   4.1028421e-03	
   1.2303038e+04	   4.1000533e-03	
   1.2316042e+04	   4.1117905e-03	
   1.2329046e+04	   4.0976098e-03	
   1.2342050e+04	   4.0941810e-03	
   1.2355055e+04	   4.0950802e-03	
   1.2368058e+04	   4.0918974e-03	
   1.2381060e+04	   4.0937285e-03	
   1.2394062e+04	   4.0944677e-03	
   1.2407065e+04	   4.0973568e-03	
   1.2420067e+04	   4.0967139e-03	
   1.2433069e+04	   4.0959640e-03	
   1.2446072e+04	   4.0950412e-03	
   1.2459075e+04	   4.0980614e-03	
   1.2472080e+04	   4.0996946e-03	
   1.2485084e+04	   4.1004789e-03	
   1.2498088e+04	   4.0984211e-03	
   1.2511092e+04	   4.0989853e-03	
   1.2524096e+04	   4.0990355e-03	
   1.2537099e+04	   4.0989817e-03	
   1.2550102e+04	   4.1035438e-03	
   1.2563105e+04	   4.1029200e-03	
   1.2576106e+04	   4.1062931e-03	
   1.2589107e+04	   4.1055081e-03	
   1.2602107e+04	   4.1022171e-03	
   1.2615109e+04	   4.0996592e-03	
   1.2628110e+04	   4.1004553e-03	
   1.2641113e+04	   4.1000955e-03	
   1.2654117e+04	   4.1034917e-03	
   1.2667121e+04	   4.1012319e-03	
   1.2680125e+04	   4.1009132e-03	
   1.2693129e+04	   4.1027743e-03	
   1.2706132e+04	   4.1039575e-03	
   1.2719277e+04	   4.1052005e-03	
   1.2732282e+04	   4.1054588e-03	
   1.2745286e+04	   4.1048840e-03	
   1.2758290e+04	   4.1063272e-03	
   1.2771292e+04	   4.1063293e-03	
   1.2784293e+04	   4.1045544e-03	
   1.2797295e+04	   4.1029165e-03	
   1.2810296e+04	   4.1039426e-03	
   1.2823297e+04	   4.1043956e-03	
   1.2836298e+04	   4.1039357e-03	
   1.2849298e+04	   4.1045147e-03	
   1.2862299e+04	   4.1062147e-03	
   1.2875300e+04	   4.1081168e-03	
   1.2888301e+04	   4.1105739e-03	
   1.2901301e+04	   4.1098009e-03	
   1.2914300e+04	   4.1136878e-03	
   1.2927299e+04	   4.1153207e-03	
   1.2940297e+04	   4.1140676e-03	
   1.2953296e+04	   4.1146986e-03	
   1.2966297e+04	   4.1154116e-03	
   1.2979299e+04	   4.1152907e-03	
   1.2992301e+04	   4.1172409e-03	
   1.3005303e+04	   4.1210580e-03	
   1.3018307e+04	   4.1234732e-03	
   1.3031310e+04	   4.1225554e-03	
   1.3044316e+04	   4.1207877e-03	
   1.3057323e+04	   4.1189351e-03	
   1.3070329e+04	   4.1188404e-03	
   1.3083334e+04	   4.1174787e-03	
   1.3096339e+04	   4.1178489e-03	
   1.3109343e+04	   4.1189462e-03	
   1.3122347e+04	   4.1180284e-03	
   1.3135350e+04	   4.1189015e-03	
   1.3148353e+04	   4.1212097e-03	
   1.3161355e+04	   4.1245308e-03	
   1.3174358e+04	   4.1297220e-03	
   1.3187361e+04	   4.1296722e-03	
   1.3200365e+04	   4.1276954e-03	
   1.3213368e+04	   4.1281636e-03	
   1.3226371e+04	   4.1283587e-03	
   1.3239374e+04	   4.1293519e-03	
   1.3252377e+04	   4.1339841e-03	
   1.3265380e+04	   4.1325222e-03	
   1.3278383e+04	   4.1298754e-03	
   1.3291386e+04	   4.1303316e-03	
   1.3304390e+04	   4.1281208e-03	
   1.3317393e+04	   4.1327049e-03	
   1.3330397e+04	   4.1309302e-03	
   1.3343401e+04	   4.1288424e-03	
   1.3356406e+04	   4.1321747e-03	
   1.3369411e+04	   4.1354549e-03	
   1.3382416e+04	   4.1388612e-03	
   1.3395421e+04	   4.1365615e-03	
   1.3408426e+04	   4.1398227e-03	
   1.3421430e+04	   4.1406370e-03	
   1.3434436e+04	   4.1451953e-03	
   1.3447442e+04	   4.1541086e-03	
   1.3460447e+04	   4.1579179e-03	
   1.3473452e+04	   4.1497202e-03	
   1.3486457e+04	   4.1552955e-03	
   1.3499461e+04	   4.1504687e-03	
   1.3512464e+04	   4.1544569e-03	
   1.3525467e+04	   4.1536360e-03	
   1.3538469e+04	   4.1491082e-03	
   1.3551473e+04	   4.1509724e-03	
   1.3564477e+04	   4.1504866e-03	
   1.3577481e+04	   4.1483908e-03	
   1.3590485e+04	   4.1492500e-03	
   1.3603488e+04	   4.1513862e-03	
   1.3616631e+04	   4.1492611e-03	
   1.3629633e+04	   4.1507982e-03	
   1.3642636e+04	   4.1500323e-03	
   1.3655637e+04	   4.1485254e-03	
   1.3668637e+04	   4.1558884e-03	
   1.3681638e+04	   4.1544415e-03	
   1.3694639e+04	   4.1539065e-03	
   1.3707640e+04	   4.1575706e-03	
   1.3720640e+04	   4.1582126e-03	
   1.3733640e+04	   4.1578086e-03	
   1.3746640e+04	   4.1530416e-03	
   1.3759640e+04	   4.1490686e-03	
   1.3772640e+04	   4.1486306e-03	
   1.3785639e+04	   4.1483825e-03	
   1.3798637e+04	   4.1478214e-03	
   1.3811633e+04	   4.1506812e-03	
   1.3824629e+04	   4.1549440e-03	
   1.3837625e+04	   4.1601687e-03	
   1.3850619e+04	   4.1606695e-03	
   1.3863615e+04	   4.1559882e-03	
   1.3876611e+04	   4.1584590e-03	
   1.3889608e+04	   4.1593358e-03	
   1.3902606e+04	   4.1587087e-03	
   1.3915606e+04	   4.1592057e-03	
   1.3928607e+04	   4.1587938e-03	
   1.3941608e+04	   4.1597718e-03	
   1.3954611e+04	   4.1619530e-03	
   1.3967614e+04	   4.1603821e-03	
   1.3980618e+04	   4.1658054e-03	
   1.3993623e+04	   4.1640447e-03	
   1.4006630e+04	   4.1587570e-03	
   1.4019637e+04	   4.1597615e-03	
   1.4032645e+04	   4.1651019e-03	
   1.4045652e+04	   4.1629323e-03	
   1.4058659e+04	   4.1641187e-03	
   1.4071667e+04	   4.1628841e-03	
   1.4084674e+04	   4.1595705e-03	
   1.4097681e+04	   4.1587538e-03	
   1.4110687e+04	   4.1590912e-03	
   1.4123692e+04	   4.1587985e-03	
   1.4136698e+04	   4.1579138e-03	
   1.4149702e+04	   4.1571450e-03	
   1.4162704e+04	   4.1575191e-03	
   1.4175705e+04	   4.1563062e-03	
   1.4188705e+04	   4.1572542e-03	
   1.4201704e+04	   4.1597221e-03	
   1.4214703e+04	   4.1584871e-03	
   1.4227703e+04	   4.1576691e-03	
   1.4240703e+04	   4.1577981e-03	
   1.4253703e+04	   4.1588351e-03	
   1.4266703e+04	   4.1600251e-03	
   1.4279720e+04	   4.1611490e-03	
   1.4292721e+04	   4.1605101e-03	
   1.4305724e+04	   4.1615922e-03	
   1.4318726e+04	   4.1581974e-03	
   1.4331729e+04	   4.1568095e-03	
   1.4344731e+04	   4.1561666e-03	
   1.4357733e+04	   4.1574947e-03	
   1.4370734e+04	   4.1549818e-03	
   1.4383735e+04	   4.1547829e-03	
   1.4396736e+04	   4.1537229e-03	
   1.4409737e+04	   4.1538960e-03	
   1.4422738e+04	   4.1524000e-03	
   1.4435738e+04	   4.1534300e-03	
   1.4448741e+04	   4.1549182e-03	
   1.4461745e+04	   4.1533634e-03	
   1.4474750e+04	   4.1536597e-03	
   1.4487755e+04	   4.1548390e-03	
   1.4500760e+04	   4.1601012e-03	
   1.4513906e+04	   4.1584943e-03	
   1.4526909e+04	   4.1599184e-03	
   1.4539911e+04	   4.1628856e-03	
   1.4552913e+04	   4.1635547e-03	
   1.4565915e+04	   4.1632768e-03	
   1.4578916e+04	   4.1637448e-03	
   1.4591916e+04	   4.1645548e-03	
   1.4604916e+04	   4.1648098e-03	
   1.4617916e+04	   4.1636569e-03	
   1.4630915e+04	   4.1632188e-03	
   1.4643914e+04	   4.1656718e-03	
   1.4656913e+04	   4.1771287e-03	
   1.4669914e+04	   4.1946837e-03	
   1.4682914e+04	   4.1881997e-03	
   1.4695913e+04	   4.1863207e-03	
   1.4708913e+04	   4.1749337e-03	
   1.4721997e+04	   4.1727943e-03	
   1.4734997e+04	   4.1789913e-03	
   1.4747998e+04	   4.1803424e-03	
   1.4761000e+04	   4.1788645e-03	
   1.4774003e+04	   4.1814227e-03	
   1.4787007e+04	   4.1781309e-03	
   1.4800845e+04	   4.1573661e-03	
   1.4814683e+04	   4.1221093e-03	
   1.4827687e+04	   4.0870115e-03	
   1.4841525e+04	   4.0413088e-03	
   1.4855363e+04	   3.9975140e-03	
   1.4869200e+04	   3.9483811e-03	
   1.4883037e+04	   3.9051483e-03	
   1.4896873e+04	   3.8637854e-03	
   1.4910710e+04	   3.8188176e-03	
   1.4923713e+04	   3.7798637e-03	
   1.4937551e+04	   3.7382369e-03	
   1.4951388e+04	   3.7025671e-03	
   1.4965225e+04	   3.6719743e-03	
   1.4979061e+04	   3.6344604e-03	
   1.4992897e+04	   3.6018145e-03	
   1.5006732e+04	   3.5672096e-03	
   1.5020566e+04	   3.5370305e-03	
   1.5034401e+04	   3.5069296e-03	
   1.5048237e+04	   3.4802297e-03	
   1.5062072e+04	   3.4530908e-03	
   1.5075906e+04	   3.4228438e-03	
   1.5089740e+04	   3.3932428e-03	
   1.5103575e+04	   3.3703088e-03	
   1.5117412e+04	   3.3459150e-03	
   1.5131248e+04	   3.3203481e-03	
   1.5145084e+04	   3.2969602e-03	
   1.5158919e+04	   3.2781203e-03	
   1.5172753e+04	   3.2536113e-03	
   1.5186586e+04	   3.2318062e-03	
   1.5200420e+04	   3.2164422e-03	
   1.5214253e+04	   3.1937212e-03	
   1.5228086e+04	   3.1736411e-03	
   1.5241918e+04	   3.1547900e-03	
   1.5255749e+04	   3.1353288e-03	
   1.5268746e+04	   3.1171587e-03	
   1.5282578e+04	   3.0972496e-03	
   1.5296411e+04	   3.0824445e-03	
   1.5310244e+04	   3.0701765e-03	
   1.5324079e+04	   3.0541085e-03	
   1.5337914e+04	   3.0398476e-03	
   1.5351749e+04	   3.0250316e-03	
   1.5365583e+04	   3.0192416e-03	
   1.5378583e+04	   3.0006656e-03	
   1.5392416e+04	   2.9824776e-03	
   1.5405416e+04	   2.9682455e-03	
   1.5419389e+04	   2.9519502e-03	
   1.5433221e+04	   2.9409711e-03	
   1.5447052e+04	   2.9305579e-03	
   1.5460882e+04	   2.9177757e-03	
   1.5474711e+04	   2.9060544e-03	
   1.5488542e+04	   2.8928363e-03	
   1.5502374e+04	   2.8812611e-03	
   1.5515372e+04	   2.8689581e-03	
   1.5529204e+04	   2.8659699e-03	
   1.5543053e+04	   2.8552747e-03	
   1.5556885e+04	   2.8394487e-03	
   1.5570717e+04	   2.8314875e-03	
   1.5584549e+04	   2.8210404e-03	
   1.5598382e+04	   2.8133363e-03	
   1.5612215e+04	   2.8046743e-03	
   1.5626049e+04	   2.7905063e-03	
   1.5639886e+04	   2.7818554e-03	
   1.5653723e+04	   2.7753506e-03	
   1.5667559e+04	   2.7657947e-03	
   1.5681396e+04	   2.7540109e-03	
   1.5695234e+04	   2.7404321e-03	
   1.5709071e+04	   2.7268493e-03	
   1.5722908e+04	   2.7138694e-03	
   1.5736744e+04	   2.7026076e-03	
   1.5750581e+04	   2.6921167e-03	
   1.5764417e+04	   2.6839949e-03	
   1.5778252e+04	   2.6781379e-03	
   1.5792087e+04	   2.6705229e-03	
   1.5805923e+04	   2.6630600e-03	
   1.5819758e+04	   2.6515301e-03	
   1.5833592e+04	   2.6430391e-03	
   1.5847426e+04	   2.6337511e-03	
   1.5861260e+04	   2.6261071e-03	
   1.5875093e+04	   2.6193221e-03	
   1.5888928e+04	   2.6099411e-03	
   1.5902764e+04	   2.6002142e-03	
   1.5916600e+04	   2.5954893e-03	
   1.5930435e+04	   2.5859224e-03	
   1.5944269e+04	   2.5771264e-03	
   1.5958105e+04	   2.5680995e-03	
   1.5971941e+04	   2.5561106e-03	
   1.5985778e+04	   2.5490918e-03	
   1.5999615e+04	   2.5414879e-03	
   1.6013450e+04	   2.5362800e-03	
   1.6027286e+04	   2.5306571e-03	
   1.6041121e+04	   2.5216301e-03	
   1.6054954e+04	   2.5128831e-03	
   1.6068788e+04	   2.5031401e-03	
   1.6082620e+04	   2.4981590e-03	
   1.6096453e+04	   2.4894969e-03	
   1.6110286e+04	   2.4816579e-03	
   1.6124118e+04	   2.4812328e-03	
   1.6137950e+04	   2.4746456e-03	
   1.6151782e+04	   2.4733785e-03	
   1.6164782e+04	   2.4612205e-03	
   1.6178616e+04	   2.4528865e-03	
   1.6192450e+04	   2.4449995e-03	
   1.6206284e+04	   2.4401255e-03	
   1.6220117e+04	   2.4302005e-03	
   1.6233951e+04	   2.4203915e-03	
   1.6247785e+04	   2.4146395e-03	
   1.6261620e+04	   2.4110135e-03	
   1.6275454e+04	   2.4044155e-03	
   1.6289289e+04	   2.4036326e-03	
   1.6303124e+04	   2.3987336e-03	
   1.6317098e+04	   2.3912454e-03	
   1.6330933e+04	   2.3806124e-03	
   1.6344768e+04	   2.3749974e-03	
   1.6358602e+04	   2.3712945e-03	
   1.6372436e+04	   2.3649455e-03	
   1.6386270e+04	   2.3572635e-03	
   1.6400106e+04	   2.3474166e-03	
   1.6413941e+04	   2.3388066e-03	
   1.6427777e+04	   2.3319337e-03	
   1.6441612e+04	   2.3251118e-03	
   1.6455446e+04	   2.3193888e-03	
   1.6469280e+04	   2.3139757e-03	
   1.6483113e+04	   2.3071837e-03	
   1.6496948e+04	   2.3001198e-03	
   1.6510783e+04	   2.2942068e-03	
   1.6524619e+04	   2.2892440e-03	
   1.6538455e+04	   2.2835891e-03	
   1.6552289e+04	   2.2769721e-03	
   1.6566122e+04	   2.2694500e-03	
   1.6579953e+04	   2.2647738e-03	
   1.6593784e+04	   2.2598887e-03	
   1.6606783e+04	   2.2545556e-03	
   1.6620617e+04	   2.2482816e-03	
   1.6634470e+04	   2.2448586e-03	
   1.6648306e+04	   2.2396058e-03	
   1.6662144e+04	   2.2345130e-03	
   1.6675982e+04	   2.2283952e-03	
   1.6689817e+04	   2.2228623e-03	
   1.6703653e+04	   2.2225563e-03	
   1.6717487e+04	   2.2147854e-03	
   1.6731322e+04	   2.2061644e-03	
   1.6745156e+04	   2.2002664e-03	
   1.6758989e+04	   2.1961114e-03	
   1.6772823e+04	   2.1942293e-03	
   1.6786656e+04	   2.1906823e-03	
   1.6800491e+04	   2.1865284e-03	
   1.6814325e+04	   2.1827054e-03	
   1.6828160e+04	   2.1801234e-03	
   1.6841995e+04	   2.1767175e-03	
   1.6855832e+04	   2.1696236e-03	
   1.6869671e+04	   2.1619869e-03	
   1.6883509e+04	   2.1575751e-03	
   1.6897347e+04	   2.1544233e-03	
   1.6911185e+04	   2.1506826e-03	
   1.6924190e+04	   2.1501558e-03	
   1.6937195e+04	   2.1421521e-03	
   1.6950200e+04	   2.1400494e-03	
   1.6964038e+04	   2.1319386e-03	
   1.6977876e+04	   2.1267568e-03	
   1.6991714e+04	   2.1211010e-03	
   1.7005551e+04	   2.1153972e-03	
   1.7019387e+04	   2.1102703e-03	
   1.7033223e+04	   2.1074534e-03	
   1.7047058e+04	   2.1032255e-03	
   1.7060893e+04	   2.1024645e-03	
   1.7074727e+04	   2.1014916e-03	
   1.7088563e+04	   2.0959106e-03	
   1.7102398e+04	   2.0919307e-03	
   1.7116234e+04	   2.0882388e-03	
   1.7130071e+04	   2.0826989e-03	
   1.7143906e+04	   2.0745660e-03	
   1.7157742e+04	   2.0679531e-03	
   1.7171577e+04	   2.0617612e-03	
   1.7185411e+04	   2.0583552e-03	
   1.7199246e+04	   2.0607122e-03	
   1.7213222e+04	   2.0594680e-03	
   1.7227057e+04	   2.0546621e-03	
   1.7240891e+04	   2.0470431e-03	
   1.7254724e+04	   2.0425640e-03	
   1.7268555e+04	   2.0404849e-03	
   1.7282387e+04	   2.0331638e-03	
   1.7296219e+04	   2.0285547e-03	
   1.7310050e+04	   2.0271795e-03	
   1.7323880e+04	   2.0240043e-03	
   1.7337712e+04	   2.0217542e-03	
   1.7351562e+04	   2.0203570e-03	
   1.7365395e+04	   2.0199130e-03	
   1.7379229e+04	   2.0193010e-03	
   1.7393062e+04	   2.0115300e-03	
   1.7406895e+04	   2.0054269e-03	
   1.7420730e+04	   2.0006729e-03	
   1.7434564e+04	   1.9987950e-03	
   1.7448400e+04	   1.9941710e-03	
   1.7462235e+04	   1.9917261e-03	
   1.7476071e+04	   1.9878622e-03	
   1.7489907e+04	   1.9841773e-03	
   1.7503742e+04	   1.9797734e-03	
   1.7517576e+04	   1.9752094e-03	
   1.7531410e+04	   1.9710184e-03	
   1.7545244e+04	   1.9698704e-03	
   1.7559077e+04	   1.9707743e-03	
   1.7572912e+04	   1.9722414e-03	
   1.7586748e+04	   1.9682325e-03	
   1.7600584e+04	   1.9636836e-03	
   1.7614421e+04	   1.9659588e-03	
   1.7628256e+04	   1.9622328e-03	
   1.7642089e+04	   1.9558957e-03	
   1.7655918e+04	   1.9517635e-03	
   1.7669748e+04	   1.9469723e-03	
   1.7683578e+04	   1.9417891e-03	
   1.7697409e+04	   1.9363459e-03	
   1.7711239e+04	   1.9332076e-03	
   1.7725070e+04	   1.9298435e-03	
   1.7738901e+04	   1.9274173e-03	
   1.7752733e+04	   1.9217352e-03	
   1.7766566e+04	   1.9208371e-03	
   1.7780399e+04	   1.9241741e-03	
   1.7794235e+04	   1.9269192e-03	
   1.7808070e+04	   1.9177353e-03	
   1.7821905e+04	   1.9113793e-03	
   1.7835739e+04	   1.9074823e-03	
   1.7849575e+04	   1.9042924e-03	
   1.7863411e+04	   1.9037925e-03	
   1.7877248e+04	   1.9003017e-03	
   1.7891085e+04	   1.8980099e-03	
   1.7904923e+04	   1.8938601e-03	
   1.7918760e+04	   1.8969322e-03	
   1.7932595e+04	   1.9012463e-03	
   1.7946430e+04	   1.8915443e-03	
   1.7960264e+04	   1.8909253e-03	
   1.7974097e+04	   1.8873033e-03	
   1.7987930e+04	   1.8799712e-03	
   1.8001761e+04	   1.8736971e-03	
   1.8015593e+04	   1.8701869e-03	
   1.8029423e+04	   1.8675077e-03	
   1.8043253e+04	   1.8645305e-03	
   1.8057086e+04	   1.8654724e-03	
   1.8070919e+04	   1.8645584e-03	
   1.8084752e+04	   1.8599203e-03	
   1.8098585e+04	   1.8524393e-03	
   1.8112559e+04	   1.8486830e-03	
   1.8126392e+04	   1.8468019e-03	
   1.8140226e+04	   1.8478630e-03	
   1.8154062e+04	   1.8435630e-03	
   1.8167898e+04	   1.8419451e-03	
   1.8181733e+04	   1.8387152e-03	
   1.8195570e+04	   1.8374184e-03	
   1.8209405e+04	   1.8347014e-03	
   1.8223240e+04	   1.8300115e-03	
   1.8237074e+04	   1.8266465e-03	
   1.8250910e+04	   1.8259306e-03	
   1.8264747e+04	   1.8222678e-03	
   1.8278586e+04	   1.8198571e-03	
   1.8292425e+04	   1.8169403e-03	
   1.8306262e+04	   1.8167275e-03	
   1.8320099e+04	   1.8134557e-03	
   1.8333935e+04	   1.8094578e-03	
   1.8347771e+04	   1.8130898e-03	
   1.8361607e+04	   1.8110029e-03	
   1.8375444e+04	   1.8102831e-03	
   1.8389280e+04	   1.8047663e-03	
   1.8403118e+04	   1.8011225e-03	
   1.8416955e+04	   1.7967557e-03	
   1.8430790e+04	   1.7984717e-03	
   1.8444623e+04	   1.7990976e-03	
   1.8458454e+04	   1.7978335e-03	
   1.8472284e+04	   1.7947522e-03	
   1.8486116e+04	   1.7944571e-03	
   1.8499947e+04	   1.7942029e-03	
   1.8513778e+04	   1.7911878e-03	
   1.8527609e+04	   1.7880426e-03	
   1.8541440e+04	   1.7866045e-03	
   1.8555273e+04	   1.7831424e-03	
   1.8569107e+04	   1.7801024e-03	
   1.8582940e+04	   1.7770463e-03	
   1.8596773e+04	   1.7730073e-03	
   1.8610625e+04	   1.7732353e-03	
   1.8624459e+04	   1.7698523e-03	
   1.8638292e+04	   1.7713752e-03	
   1.8652125e+04	   1.7661512e-03	
   1.8665957e+04	   1.7645190e-03	
   1.8679791e+04	   1.7605431e-03	
   1.8693625e+04	   1.7598981e-03	
   1.8707459e+04	   1.7587050e-03	
   1.8721292e+04	   1.7559400e-03	
   1.8735124e+04	   1.7523779e-03	
   1.8748957e+04	   1.7498588e-03	
   1.8762788e+04	   1.7490197e-03	
   1.8776620e+04	   1.7461355e-03	
   1.8790452e+04	   1.7417354e-03	
   1.8804285e+04	   1.7440334e-03	
   1.8818119e+04	   1.7449304e-03	
   1.8831954e+04	   1.7474634e-03	
   1.8844960e+04	   1.7486238e-03	
   1.8858799e+04	   1.7432441e-03	
   1.8872640e+04	   1.7420884e-03	
   1.8886479e+04	   1.7385827e-03	
   1.8900319e+04	   1.7344620e-03	
   1.8914157e+04	   1.7320102e-03	
   1.8927995e+04	   1.7297225e-03	
   1.8941002e+04	   1.7300378e-03	
   1.8954007e+04	   1.7268841e-03	
   1.8967844e+04	   1.7276553e-03	
   1.8981681e+04	   1.7258475e-03	
   1.8995518e+04	   1.7240366e-03	
   1.9008661e+04	   1.7238265e-03	
   1.9022496e+04	   1.7241505e-03	
   1.9035496e+04	   1.7271586e-03	
   1.9049329e+04	   1.7242335e-03	
   1.9062325e+04	   1.7193583e-03	
   1.9075321e+04	   1.7224781e-03	
   1.9089149e+04	   1.7197947e-03	
   1.9102977e+04	   1.7148164e-03	
   1.9116803e+04	   1.7150800e-03	
   1.9130629e+04	   1.7142705e-03	
   1.9144454e+04	   1.7155660e-03	
   1.9158280e+04	   1.7152666e-03	
   1.9172103e+04	   1.7106010e-03	
   1.9185926e+04	   1.7076384e-03	
   1.9199751e+04	   1.7070369e-03	
   1.9213576e+04	   1.7012474e-03	
   1.9227401e+04	   1.6960719e-03	
   1.9241226e+04	   1.6921364e-03	
   1.9255050e+04	   1.6889838e-03	
   1.9268873e+04	   1.6873172e-03	
   1.9282696e+04	   1.6831916e-03	
   1.9296519e+04	   1.6811570e-03	
   1.9310343e+04	   1.6790584e-03	
   1.9324167e+04	   1.6770379e-03	
   1.9337992e+04	   1.6778974e-03	
   1.9351820e+04	   1.6766071e-03	
   1.9365650e+04	   1.6752429e-03	
   1.9379483e+04	   1.6722918e-03	
   1.9393317e+04	   1.6702528e-03	
   1.9407152e+04	   1.6675149e-03	
   1.9420989e+04	   1.6657110e-03	
   1.9434826e+04	   1.6625252e-03	
   1.9448664e+04	   1.6631504e-03	
   1.9462500e+04	   1.6603035e-03	
   1.9476336e+04	   1.6585746e-03	
   1.9490171e+04	   1.6579747e-03	
   1.9504006e+04	   1.6590987e-03	
   1.9517856e+04	   1.6572066e-03	
   1.9531688e+04	   1.6552385e-03	
   1.9545519e+04	   1.6543703e-03	
   1.9559348e+04	   1.6508600e-03	
   1.9573175e+04	   1.6499277e-03	
   1.9587002e+04	   1.6515023e-03	
   1.9600828e+04	   1.6526078e-03	
   1.9614654e+04	   1.6589204e-03	
   1.9627648e+04	   1.6582031e-03	
   1.9641477e+04	   1.6510048e-03	
   1.9655305e+04	   1.6502104e-03	
   1.9669133e+04	   1.6461411e-03	
   1.9682963e+04	   1.6429139e-03	
   1.9696794e+04	   1.6406297e-03	
   1.9710625e+04	   1.6407296e-03	
   1.9723706e+04	   1.6404150e-03	
   1.9737538e+04	   1.6426979e-03	
   1.9751371e+04	   1.6413679e-03	
   1.9764371e+04	   1.6346638e-03	
   1.9778204e+04	   1.6313998e-03	
   1.9792039e+04	   1.6320879e-03	
   1.9805875e+04	   1.6349230e-03	
   1.9819714e+04	   1.6315582e-03	
   1.9833555e+04	   1.6299706e-03	
   1.9847398e+04	   1.6301491e-03	
   1.9861239e+04	   1.6307155e-03	
   1.9874246e+04	   1.6290039e-03	
   1.9888085e+04	   1.6295292e-03	
   1.9901923e+04	   1.6289134e-03	
   1.9915067e+04	   1.6264203e-03	
   1.9928069e+04	   1.6239184e-03	
   1.9941901e+04	   1.6281603e-03	
   1.9955730e+04	   1.6258691e-03	
   1.9969557e+04	   1.6248987e-03	
   1.9983383e+04	   1.6250733e-03	
   1.9997209e+04	   1.6227328e-03	
   2.0011034e+04	   1.6204473e-03	
   2.0024860e+04	   1.6169258e-03	
   2.0038685e+04	   1.6161653e-03	
   2.0052510e+04	   1.6147968e-03	
   2.0066336e+04	   1.6129184e-03	
   2.0079330e+04	   1.6097011e-03	
   2.0093158e+04	   1.6100537e-03	
   2.0106987e+04	   1.6166945e-03	
   2.0119984e+04	   1.6155793e-03	
   2.0132983e+04	   1.6102463e-03	
   2.0146816e+04	   1.6093582e-03	
   2.0160652e+04	   1.6066983e-03	
   2.0173656e+04	   1.6017005e-03	
   2.0186662e+04	   1.6016729e-03	
   2.0199669e+04	   1.6016713e-03	
   2.0212678e+04	   1.6017777e-03	
   2.0226521e+04	   1.6045122e-03	
   2.0239530e+04	   1.6029347e-03	
   2.0253373e+04	   1.5985722e-03	
   2.0267216e+04	   1.5979057e-03	
   2.0281058e+04	   1.5977711e-03	
   2.0294898e+04	   1.5976885e-03	
   2.0308737e+04	   1.5970138e-03	
   2.0322575e+04	   1.6013310e-03	
   2.0336411e+04	   1.5973261e-03	
   2.0350245e+04	   1.5990201e-03	
   2.0364078e+04	   1.5961210e-03	
   2.0377909e+04	   1.6004459e-03	
   2.0391739e+04	   1.5978147e-03	
   2.0405568e+04	   1.5956794e-03	
   2.0419397e+04	   1.5984901e-03	
   2.0433225e+04	   1.5995287e-03	
   2.0447052e+04	   1.5965254e-03	
   2.0460881e+04	   1.5914501e-03	
   2.0474708e+04	   1.5883907e-03	
   2.0488535e+04	   1.5891203e-03	
   2.0502363e+04	   1.5936940e-03	
   2.0516191e+04	   1.5888386e-03	
   2.0530019e+04	   1.5855743e-03	
   2.0543015e+04	   1.5840071e-03	
   2.0556012e+04	   1.5866169e-03	
   2.0569010e+04	   1.5882578e-03	
   2.0582842e+04	   1.5859057e-03	
   2.0596675e+04	   1.5836817e-03	
   2.0610510e+04	   1.5865977e-03	
   2.0624344e+04	   1.5876327e-03	
   2.0638179e+04	   1.5870278e-03	
   2.0652014e+04	   1.5870238e-03	
   2.0665848e+04	   1.5857528e-03	
   2.0679683e+04	   1.5860089e-03	
   2.0693518e+04	   1.5783200e-03	
   2.0707355e+04	   1.5754251e-03	
   2.0721192e+04	   1.5769882e-03	
   2.0735028e+04	   1.5762544e-03	
   2.0748864e+04	   1.5769985e-03	
   2.0762701e+04	   1.5844827e-03	
   2.0776537e+04	   1.5833677e-03	
   2.0790373e+04	   1.5825109e-03	
   2.0804210e+04	   1.5885820e-03	
   2.0818186e+04	   1.5805729e-03	
   2.0832022e+04	   1.5755279e-03	
   2.0845857e+04	   1.5744660e-03	
   2.0859693e+04	   1.5735781e-03	
   2.0873529e+04	   1.5757272e-03	
   2.0887363e+04	   1.5737152e-03	
   2.0901198e+04	   1.5735283e-03	
   2.0915034e+04	   1.5705994e-03	
   2.0928871e+04	   1.5691686e-03	
   2.0942709e+04	   1.5677148e-03	
   2.0956546e+04	   1.5694650e-03	
   2.0970384e+04	   1.5682392e-03	
   2.0984221e+04	   1.5705744e-03	
   2.0997225e+04	   1.5680436e-03	
   2.1011062e+04	   1.5702107e-03	
   2.1024900e+04	   1.5668579e-03	
   2.1038738e+04	   1.5647371e-03	
   2.1052574e+04	   1.5643013e-03	
   2.1066410e+04	   1.5633244e-03	
   2.1079411e+04	   1.5604164e-03	
   2.1093244e+04	   1.5598984e-03	
   2.1107076e+04	   1.5570103e-03	
   2.1120073e+04	   1.5575331e-03	
   2.1133903e+04	   1.5592609e-03	
   2.1147734e+04	   1.5593837e-03	
   2.1161565e+04	   1.5680926e-03	
   2.1175398e+04	   1.5626595e-03	
   2.1189231e+04	   1.5591874e-03	
   2.1203064e+04	   1.5577484e-03	
   2.1216897e+04	   1.5541123e-03	
   2.1230729e+04	   1.5553182e-03	
   2.1244561e+04	   1.5545161e-03	
   2.1258392e+04	   1.5560729e-03	
   2.1272224e+04	   1.5505728e-03	
   2.1286055e+04	   1.5511757e-03	
   2.1299887e+04	   1.5524525e-03	
   2.1313719e+04	   1.5513384e-03	
   2.1327552e+04	   1.5508344e-03	
   2.1341387e+04	   1.5475444e-03	
   2.1355223e+04	   1.5467766e-03	
   2.1369061e+04	   1.5472827e-03	
   2.1382898e+04	   1.5472929e-03	
   2.1396736e+04	   1.5483251e-03	
   2.1410572e+04	   1.5443573e-03	
   2.1424410e+04	   1.5458125e-03	
   2.1438247e+04	   1.5458756e-03	
   2.1452084e+04	   1.5470708e-03	
   2.1465922e+04	   1.5449060e-03	
   2.1479759e+04	   1.5416832e-03	
   2.1493596e+04	   1.5425504e-03	
   2.1507434e+04	   1.5420025e-03	
   2.1521270e+04	   1.5404077e-03	
   2.1535105e+04	   1.5401207e-03	
   2.1548939e+04	   1.5360697e-03	
   2.1562773e+04	   1.5354177e-03	
   2.1576607e+04	   1.5339417e-03	
   2.1589608e+04	   1.5365138e-03	
   2.1602608e+04	   1.5388738e-03	
   2.1615607e+04	   1.5365437e-03	
   2.1629439e+04	   1.5369896e-03	
   2.1643270e+04	   1.5358305e-03	
   2.1657102e+04	   1.5356614e-03	
   2.1670935e+04	   1.5306023e-03	
   2.1684768e+04	   1.5320762e-03	
   2.1698600e+04	   1.5300191e-03	
   2.1712571e+04	   1.5285287e-03	
   2.1726401e+04	   1.5255994e-03	
   2.1740231e+04	   1.5247493e-03	
   2.1754064e+04	   1.5256801e-03	
   2.1767896e+04	   1.5261491e-03	
   2.1781729e+04	   1.5264790e-03	
   2.1795563e+04	   1.5233790e-03	
   2.1809396e+04	   1.5206329e-03	
   2.1822395e+04	   1.5191819e-03	
   2.1836227e+04	   1.5230068e-03	
   2.1850059e+04	   1.5252227e-03	
   2.1863892e+04	   1.5206136e-03	
   2.1877724e+04	   1.5173905e-03	
   2.1891556e+04	   1.5174424e-03	
   2.1905388e+04	   1.5166663e-03	
   2.1919219e+04	   1.5179691e-03	
   2.1933052e+04	   1.5234151e-03	
   2.1946885e+04	   1.5229080e-03	
   2.1960719e+04	   1.5213830e-03	
   2.1974553e+04	   1.5181530e-03	
   2.1988389e+04	   1.5151271e-03	
   2.2001392e+04	   1.5199723e-03	
   2.2015228e+04	   1.5187794e-03	
   2.2028229e+04	   1.5197084e-03	
   2.2042063e+04	   1.5222485e-03	
   2.2055897e+04	   1.5202144e-03	
   2.2069730e+04	   1.5219234e-03	
   2.2083562e+04	   1.5140923e-03	
   2.2097395e+04	   1.5113042e-03	
   2.2111227e+04	   1.5133491e-03	
   2.2124225e+04	   1.5115330e-03	
   2.2138055e+04	   1.5094088e-03	
   2.2151885e+04	   1.5061995e-03	
   2.2165715e+04	   1.5069623e-03	
   2.2179546e+04	   1.5076842e-03	
   2.2193376e+04	   1.5065849e-03	
   2.2207206e+04	   1.5081187e-03	
   2.2221054e+04	   1.5042965e-03	
   2.2234887e+04	   1.5054844e-03	
   2.2248720e+04	   1.5053044e-03	
   2.2262552e+04	   1.5027003e-03	
   2.2276383e+04	   1.5025351e-03	
   2.2290212e+04	   1.5028728e-03	
   2.2304040e+04	   1.5007935e-03	
   2.2317870e+04	   1.5040152e-03	
   2.2331701e+04	   1.5057421e-03	
   2.2345533e+04	   1.5015510e-03	
   2.2359366e+04	   1.5045680e-03	
   2.2372367e+04	   1.5006170e-03	
   2.2386200e+04	   1.4999079e-03	
   2.2400033e+04	   1.4977879e-03	
   2.2413865e+04	   1.4968858e-03	
   2.2427698e+04	   1.4941877e-03	
   2.2441532e+04	   1.4941307e-03	
   2.2455366e+04	   1.4928447e-03	
   2.2469200e+04	   1.4931757e-03	
   2.2483035e+04	   1.4948857e-03	
   2.2496869e+04	   1.4876317e-03	
   2.2510701e+04	   1.4828627e-03	
   2.2524534e+04	   1.4827056e-03	
   2.2538365e+04	   1.4844814e-03	
   2.2552196e+04	   1.4867383e-03	
   2.2566027e+04	   1.4820131e-03	
   2.2579857e+04	   1.4787569e-03	
   2.2593687e+04	   1.4853007e-03	
   2.2607660e+04	   1.4815123e-03	
   2.2621492e+04	   1.4802892e-03	
   2.2635325e+04	   1.4778781e-03	
   2.2649159e+04	   1.4774081e-03	
   2.2662993e+04	   1.4755002e-03	
   2.2676826e+04	   1.4751011e-03	
   2.2690658e+04	   1.4770220e-03	
   2.2704490e+04	   1.4741789e-03	
   2.2718324e+04	   1.4748158e-03	
   2.2732157e+04	   1.4758768e-03	
   2.2745991e+04	   1.4738678e-03	
   2.2759825e+04	   1.4729958e-03	
   2.2773660e+04	   1.4725028e-03	
   2.2787493e+04	   1.4711348e-03	
   2.2801327e+04	   1.4686678e-03	
   2.2815162e+04	   1.4658509e-03	
   2.2828997e+04	   1.4739639e-03	
   2.2842834e+04	   1.4789371e-03	
   2.2856672e+04	   1.4806983e-03	
   2.2870509e+04	   1.4734565e-03	
   2.2883513e+04	   1.4695127e-03	
   2.2897351e+04	   1.4745459e-03	
   2.2911189e+04	   1.4679621e-03	
   2.2925027e+04	   1.4678873e-03	
   2.2938864e+04	   1.4687625e-03	
   2.2951867e+04	   1.4662426e-03	
   2.2965703e+04	   1.4680448e-03	
   2.2979539e+04	   1.4676009e-03	
   2.2993375e+04	   1.4660360e-03	
   2.3007211e+04	   1.4654871e-03	
   2.3021049e+04	   1.4656923e-03	
   2.3034887e+04	   1.4670995e-03	
   2.3048723e+04	   1.4648826e-03	
   2.3062557e+04	   1.4656526e-03	
   2.3076390e+04	   1.4622326e-03	
   2.3090222e+04	   1.4619485e-03	
   2.3104054e+04	   1.4665294e-03	
   2.3117889e+04	   1.4615674e-03	
   2.3130990e+04	   1.4603640e-03	
   2.3144824e+04	   1.4581610e-03	
   2.3158659e+04	   1.4567521e-03	
   2.3171661e+04	   1.4584532e-03	
   2.3184662e+04	   1.4554222e-03	
   2.3198496e+04	   1.4575822e-03	
   2.3212333e+04	   1.4526984e-03	
   2.3225337e+04	   1.4525436e-03	
   2.3238341e+04	   1.4487238e-03	
   2.3251347e+04	   1.4500112e-03	
   2.3264354e+04	   1.4511976e-03	
   2.3277444e+04	   1.4484105e-03	
   2.3291285e+04	   1.4485109e-03	
   2.3305123e+04	   1.4453511e-03	
   2.3318961e+04	   1.4471983e-03	
   2.3332798e+04	   1.4414045e-03	
   2.3345800e+04	   1.4370486e-03	
   2.3359635e+04	   1.4346786e-03	
   2.3373470e+04	   1.4379037e-03	
   2.3387303e+04	   1.4440457e-03	
   2.3401136e+04	   1.4441716e-03	
   2.3414968e+04	   1.4436685e-03	
   2.3428800e+04	   1.4440954e-03	
   2.3441799e+04	   1.4406033e-03	
   2.3455632e+04	   1.4392762e-03	
   2.3469464e+04	   1.4393051e-03	
   2.3482462e+04	   1.4370530e-03	
   2.3496294e+04	   1.4368589e-03	
   2.3510267e+04	   1.4371416e-03	
   2.3524100e+04	   1.4373495e-03	
   2.3537933e+04	   1.4390175e-03	
   2.3551765e+04	   1.4381004e-03	
   2.3565598e+04	   1.4388293e-03	
   2.3579431e+04	   1.4363143e-03	
   2.3593265e+04	   1.4353042e-03	
   2.3607098e+04	   1.4333842e-03	
   2.3620931e+04	   1.4392882e-03	
   2.3634764e+04	   1.4400331e-03	
   2.3648597e+04	   1.4441411e-03	
   2.3662429e+04	   1.4396369e-03	
   2.3676261e+04	   1.4364948e-03	
   2.3690092e+04	   1.4321206e-03	
   2.3703925e+04	   1.4308316e-03	
   2.3716923e+04	   1.4332575e-03	
   2.3729921e+04	   1.4328384e-03	
   2.3743752e+04	   1.4292722e-03	
   2.3756750e+04	   1.4282721e-03	
   2.3770583e+04	   1.4296310e-03	
   2.3784415e+04	   1.4290569e-03	
   2.3797414e+04	   1.4307349e-03	
   2.3810415e+04	   1.4294329e-03	
   2.3823415e+04	   1.4385879e-03	
   2.3836414e+04	   1.4327669e-03	
   2.3849412e+04	   1.4337408e-03	
   2.3863242e+04	   1.4310425e-03	
   2.3877071e+04	   1.4340363e-03	
   2.3890899e+04	   1.4356120e-03	
   2.3903895e+04	   1.4362837e-03	
   2.3916891e+04	   1.4337405e-03	
   2.3929888e+04	   1.4419493e-03	
   2.3943718e+04	   1.4421271e-03	
   2.3957546e+04	   1.4350218e-03	
   2.3971374e+04	   1.4403294e-03	
   2.3985201e+04	   1.4389831e-03	
   2.3999029e+04	   1.4434197e-03	
   2.4012859e+04	   1.4412245e-03	
   2.4026691e+04	   1.4403334e-03	
   2.4040525e+04	   1.4403214e-03	
   2.4054360e+04	   1.4432485e-03	
   2.4068196e+04	   1.4425516e-03	
   2.4082034e+04	   1.4410948e-03	
   2.4095872e+04	   1.4423010e-03	
   2.4109712e+04	   1.4371703e-03	
   2.4123552e+04	   1.4385596e-03	
   2.4136557e+04	   1.4370649e-03	
   2.4150395e+04	   1.4370861e-03	
   2.4163398e+04	   1.4355423e-03	
   2.4177234e+04	   1.4363764e-03	
   2.4191070e+04	   1.4373735e-03	
   2.4204904e+04	   1.4353505e-03	
   2.4218737e+04	   1.4368105e-03	
   2.4232570e+04	   1.4411194e-03	
   2.4246402e+04	   1.4404703e-03	
   2.4260235e+04	   1.4374442e-03	
   2.4274070e+04	   1.4402453e-03	
   2.4287905e+04	   1.4373504e-03	
   2.4301741e+04	   1.4386355e-03	
   2.4315579e+04	   1.4451797e-03	
   2.4329417e+04	   1.4409999e-03	
   2.4342422e+04	   1.4395232e-03	
   2.4356257e+04	   1.4414893e-03	
   2.4369259e+04	   1.4469334e-03	
   2.4383093e+04	   1.4432073e-03	
   2.4396926e+04	   1.4464923e-03	
   2.4410898e+04	   1.4493569e-03	
   2.4423897e+04	   1.4450039e-03	
   2.4437729e+04	   1.4403838e-03	
   2.4451562e+04	   1.4430797e-03	
   2.4465393e+04	   1.4454855e-03	
   2.4479224e+04	   1.4425823e-03	
   2.4493055e+04	   1.4388192e-03	
   2.4506053e+04	   1.4399421e-03	
   2.4519051e+04	   1.4419260e-03	
   2.4532883e+04	   1.4431948e-03	
   2.4546715e+04	   1.4479437e-03	
   2.4560548e+04	   1.4438937e-03	
   2.4574381e+04	   1.4388716e-03	
   2.4587383e+04	   1.4368547e-03	
   2.4600384e+04	   1.4377468e-03	
   2.4614219e+04	   1.4350818e-03	
   2.4628052e+04	   1.4351528e-03	
   2.4641052e+04	   1.4401348e-03	
   2.4654886e+04	   1.4371088e-03	
   2.4668719e+04	   1.4384308e-03	
   2.4682554e+04	   1.4377488e-03	
   2.4696390e+04	   1.4357699e-03	
   2.4710226e+04	   1.4375650e-03	
   2.4724062e+04	   1.4353661e-03	
   2.4737900e+04	   1.4344303e-03	
   2.4751736e+04	   1.4329584e-03	
   2.4765571e+04	   1.4302615e-03	
   2.4779406e+04	   1.4261926e-03	
   2.4792409e+04	   1.4263727e-03	
   2.4805412e+04	   1.4265869e-03	
   2.4818416e+04	   1.4260231e-03	
   2.4832253e+04	   1.4243913e-03	
   2.4845257e+04	   1.4237595e-03	
   2.4858261e+04	   1.4250877e-03	
   2.4871262e+04	   1.4215768e-03	
   2.4885096e+04	   1.4239828e-03	
   2.4898097e+04	   1.4237568e-03	
   2.4911929e+04	   1.4208057e-03	
   2.4924928e+04	   1.4260227e-03	
   2.4938759e+04	   1.4268975e-03	
   2.4952588e+04	   1.4243892e-03	
   2.4966416e+04	   1.4207639e-03	
   2.4980243e+04	   1.4196415e-03	
   2.4993239e+04	   1.4245192e-03	
   2.5007066e+04	   1.4208559e-03	
   2.5020892e+04	   1.4195325e-03	
   2.5033887e+04	   1.4175852e-03	
   2.5047714e+04	   1.4185158e-03	
   2.5060709e+04	   1.4180105e-03	
   2.5074536e+04	   1.4223791e-03	
   2.5088364e+04	   1.4201428e-03	
   2.5102192e+04	   1.4188605e-03	
   2.5116037e+04	   1.4160590e-03	
   2.5129866e+04	   1.4190348e-03	
   2.5143696e+04	   1.4226626e-03	
   2.5156693e+04	   1.4283374e-03	
   2.5169690e+04	   1.4246362e-03	
   2.5182687e+04	   1.4206030e-03	
   2.5196517e+04	   1.4211988e-03	
   2.5210346e+04	   1.4219126e-03	
   2.5224177e+04	   1.4238824e-03	
   2.5237175e+04	   1.4251093e-03	
   2.5251004e+04	   1.4198110e-03	
   2.5264000e+04	   1.4180878e-03	
   2.5277829e+04	   1.4168615e-03	
   2.5291659e+04	   1.4185703e-03	
   2.5305486e+04	   1.4169529e-03	
   2.5319453e+04	   1.4171163e-03	
   2.5333280e+04	   1.4153299e-03	
   2.5347106e+04	   1.4152104e-03	
   2.5360934e+04	   1.4131751e-03	
   2.5374765e+04	   1.4107079e-03	
   2.5388597e+04	   1.4187168e-03	
   2.5402428e+04	   1.4162156e-03	
   2.5416259e+04	   1.4174445e-03	
   2.5430089e+04	   1.4158083e-03	
   2.5443919e+04	   1.4115381e-03	
   2.5457749e+04	   1.4140558e-03	
   2.5470743e+04	   1.4114345e-03	
   2.5484571e+04	   1.4114701e-03	
   2.5498400e+04	   1.4119349e-03	
   2.5511396e+04	   1.4116836e-03	
   2.5525226e+04	   1.4107364e-03	
   2.5539056e+04	   1.4107612e-03	
   2.5552054e+04	   1.4091871e-03	
   2.5565885e+04	   1.4095139e-03	
   2.5579716e+04	   1.4090517e-03	
   2.5593547e+04	   1.4036196e-03	
   2.5607379e+04	   1.4024525e-03	
   2.5621210e+04	   1.3996463e-03	
   2.5635042e+04	   1.4005212e-03	
   2.5648875e+04	   1.4025171e-03	
   2.5662709e+04	   1.3995211e-03	
   2.5676543e+04	   1.4001542e-03	
   2.5690377e+04	   1.4025411e-03	
   2.5704211e+04	   1.4062391e-03	
   2.5718045e+04	   1.4085151e-03	
   2.5731879e+04	   1.4027851e-03	
   2.5745712e+04	   1.4019091e-03	
   2.5759545e+04	   1.4006601e-03	
   2.5773379e+04	   1.4015380e-03	
   2.5787213e+04	   1.4002820e-03	
   2.5801048e+04	   1.4046921e-03	
   2.5814881e+04	   1.4024980e-03	
   2.5828714e+04	   1.4033980e-03	
   2.5842545e+04	   1.4028718e-03	
   2.5856374e+04	   1.4023125e-03	
   2.5870203e+04	   1.4003553e-03	
   2.5884032e+04	   1.4028470e-03	
   2.5897861e+04	   1.4013187e-03	
   2.5911691e+04	   1.3998905e-03	
   2.5925521e+04	   1.3985643e-03	
   2.5938520e+04	   1.3955482e-03	
   2.5952351e+04	   1.3940420e-03	
   2.5966182e+04	   1.3950619e-03	
   2.5980015e+04	   1.3980158e-03	
   2.5993849e+04	   1.3962188e-03	
   2.6007701e+04	   1.3911198e-03	
   2.6021535e+04	   1.3918528e-03	
   2.6035369e+04	   1.3957228e-03	
   2.6049202e+04	   1.3918517e-03	
   2.6063034e+04	   1.3873316e-03	
   2.6076866e+04	   1.3917565e-03	
   2.6090699e+04	   1.3968745e-03	
   2.6104532e+04	   1.3892744e-03	
   2.6118367e+04	   1.3950034e-03	
   2.6132202e+04	   1.3916385e-03	
   2.6146037e+04	   1.3904716e-03	
   2.6159871e+04	   1.3933586e-03	
   2.6173704e+04	   1.3900155e-03	
   2.6187537e+04	   1.3897804e-03	
   2.6201369e+04	   1.3944103e-03	
   2.6215340e+04	   1.3939369e-03	
   2.6229172e+04	   1.3929518e-03	
   2.6243004e+04	   1.4027857e-03	
   2.6256835e+04	   1.3975365e-03	
   2.6270666e+04	   1.3942314e-03	
   2.6284497e+04	   1.3916752e-03	
   2.6298329e+04	   1.3880160e-03	
   2.6312160e+04	   1.3863199e-03	
   2.6325993e+04	   1.3851048e-03	
   2.6339826e+04	   1.3828428e-03	
   2.6353659e+04	   1.3862057e-03	
   2.6367492e+04	   1.3850727e-03	
   2.6381325e+04	   1.3875346e-03	
   2.6395157e+04	   1.3906445e-03	
   2.6408986e+04	   1.3892912e-03	
   2.6422815e+04	   1.3860040e-03	
   2.6436645e+04	   1.3847367e-03	
   2.6450473e+04	   1.3867924e-03	
   2.6464303e+04	   1.3850402e-03	
   2.6477303e+04	   1.3843122e-03	
   2.6491138e+04	   1.3872022e-03	
   2.6504224e+04	   1.3840240e-03	
   2.6518063e+04	   1.3831622e-03	
   2.6531902e+04	   1.3829385e-03	
   2.6545742e+04	   1.3811498e-03	
   2.6559583e+04	   1.3804162e-03	
   2.6573426e+04	   1.3771487e-03	
   2.6586436e+04	   1.3792413e-03	
   2.6599444e+04	   1.3791907e-03	
   2.6612452e+04	   1.3865622e-03	
   2.6626295e+04	   1.3843116e-03	
   2.6640137e+04	   1.3794201e-03	
   2.6653978e+04	   1.3774305e-03	
   2.6667819e+04	   1.3795309e-03	
   2.6681659e+04	   1.3800112e-03	
   2.6695497e+04	   1.3766544e-03	
   2.6709334e+04	   1.3784716e-03	
   2.6723170e+04	   1.3738597e-03	
   2.6737022e+04	   1.3721197e-03	
   2.6750857e+04	   1.3707217e-03	
   2.6764691e+04	   1.3677377e-03	
   2.6778525e+04	   1.3728298e-03	
   2.6792360e+04	   1.3688538e-03	
   2.6805361e+04	   1.3648399e-03	
   2.6819196e+04	   1.3606519e-03	
   2.6832197e+04	   1.3580419e-03	
   2.6845197e+04	   1.3573620e-03	
   2.6858197e+04	   1.3600160e-03	
   2.6872031e+04	   1.3564770e-03	
   2.6885866e+04	   1.3531310e-03	
   2.6898867e+04	   1.3524811e-03	
   2.6912701e+04	   1.3521371e-03	
   2.6926537e+04	   1.3537612e-03	
   2.6939539e+04	   1.3491953e-03	
   2.6953375e+04	   1.3484834e-03	
   2.6967213e+04	   1.3471796e-03	
   2.6981050e+04	   1.3546328e-03	
   2.6994886e+04	   1.3546439e-03	
   2.7008722e+04	   1.3582270e-03	
   2.7022557e+04	   1.3530701e-03	
   2.7036392e+04	   1.3525221e-03	
   2.7050229e+04	   1.3506962e-03	
   2.7064066e+04	   1.3493915e-03	
   2.7077905e+04	   1.3485757e-03	
   2.7091743e+04	   1.3492119e-03	
   2.7105581e+04	   1.3507242e-03	
   2.7119558e+04	   1.3486640e-03	
   2.7133394e+04	   1.3487111e-03	
   2.7147229e+04	   1.3563362e-03	
   2.7161064e+04	   1.3619572e-03	
   2.7174898e+04	   1.3602883e-03	
   2.7188732e+04	   1.3612483e-03	
   2.7202566e+04	   1.3645073e-03	
   2.7216399e+04	   1.3610082e-03	
   2.7230231e+04	   1.3591751e-03	
   2.7244061e+04	   1.3583429e-03	
   2.7257892e+04	   1.3607677e-03	
   2.7271721e+04	   1.3613884e-03	
   2.7285551e+04	   1.3653442e-03	
   2.7299382e+04	   1.3600050e-03	
   2.7313213e+04	   1.3609729e-03	
   2.7327045e+04	   1.3568997e-03	
   2.7340875e+04	   1.3537996e-03	
   2.7354707e+04	   1.3556544e-03	
   2.7368539e+04	   1.3578733e-03	
   2.7382372e+04	   1.3590573e-03	
   2.7396205e+04	   1.3529842e-03	
   2.7410038e+04	   1.3508081e-03	
   2.7423872e+04	   1.3499021e-03	
   2.7437705e+04	   1.3512131e-03	
   2.7451537e+04	   1.3473300e-03	
   2.7465368e+04	   1.3519678e-03	
   2.7479198e+04	   1.3455776e-03	
   2.7492196e+04	   1.3492745e-03	
   2.7506028e+04	   1.3516063e-03	
   2.7519860e+04	   1.3508112e-03	
   2.7533692e+04	   1.3516751e-03	
   2.7547525e+04	   1.3522441e-03	
   2.7561358e+04	   1.3506640e-03	
   2.7575191e+04	   1.3527830e-03	
   2.7589024e+04	   1.3529609e-03	
   2.7602857e+04	   1.3492579e-03	
   2.7616690e+04	   1.3484888e-03	
   2.7630523e+04	   1.3476687e-03	
   2.7644354e+04	   1.3483466e-03	
   2.7658185e+04	   1.3479654e-03	
   2.7672019e+04	   1.3471564e-03	
   2.7685854e+04	   1.3461054e-03	
   2.7699687e+04	   1.3454044e-03	
   2.7713521e+04	   1.3546794e-03	
   2.7727355e+04	   1.3525364e-03	
   2.7741191e+04	   1.3495515e-03	
   2.7755026e+04	   1.3491306e-03	
   2.7768861e+04	   1.3491336e-03	
   2.7781864e+04	   1.3448508e-03	
   2.7795700e+04	   1.3435539e-03	
   2.7809537e+04	   1.3421571e-03	
   2.7823374e+04	   1.3412552e-03	
   2.7837211e+04	   1.3405204e-03	
   2.7851045e+04	   1.3420804e-03	
   2.7864878e+04	   1.3413753e-03	
   2.7878710e+04	   1.3437782e-03	
   2.7892225e+04	   1.3440646e-03	
   2.7906056e+04	   1.3402415e-03	
   2.7919887e+04	   1.3419063e-03	
   2.7933718e+04	   1.3406691e-03	
   2.7947549e+04	   1.3385589e-03	
   2.7961379e+04	   1.3397877e-03	
   2.7974377e+04	   1.3381426e-03	
   2.7988207e+04	   1.3371024e-03	
   2.8002036e+04	   1.3382792e-03	
   2.8016007e+04	   1.3400547e-03	
   2.8029839e+04	   1.3354796e-03	
   2.8043671e+04	   1.3348535e-03	
   2.8057504e+04	   1.3331684e-03	
   2.8071336e+04	   1.3326163e-03	
   2.8085169e+04	   1.3335022e-03	
   2.8099002e+04	   1.3325632e-03	
   2.8112834e+04	   1.3328901e-03	
   2.8126417e+04	   1.3370142e-03	
   2.8140250e+04	   1.3354262e-03	
   2.8154084e+04	   1.3323042e-03	
   2.8167919e+04	   1.3277512e-03	
   2.8181755e+04	   1.3349963e-03	
   2.8195592e+04	   1.3358595e-03	
   2.8208596e+04	   1.3348517e-03	
   2.8222433e+04	   1.3318529e-03	
   2.8236270e+04	   1.3334351e-03	
   2.8250108e+04	   1.3351933e-03	
   2.8263943e+04	   1.3320863e-03	
   2.8277776e+04	   1.3306623e-03	
   2.8291609e+04	   1.3327922e-03	
   2.8305443e+04	   1.3345122e-03	
   2.8318444e+04	   1.3341383e-03	
   2.8332279e+04	   1.3434023e-03	
   2.8345281e+04	   1.3385094e-03	
   2.8359115e+04	   1.3349764e-03	
   2.8372949e+04	   1.3336384e-03	
   2.8385949e+04	   1.3309734e-03	
   2.8399782e+04	   1.3277944e-03	
   2.8413615e+04	   1.3343993e-03	
   2.8427449e+04	   1.3296823e-03	
   2.8441283e+04	   1.3258143e-03	
   2.8454282e+04	   1.3240653e-03	
   2.8468115e+04	   1.3241652e-03	
   2.8481948e+04	   1.3233932e-03	
   2.8495782e+04	   1.3232702e-03	
   2.8509617e+04	   1.3230832e-03	
   2.8523452e+04	   1.3208282e-03	
   2.8537286e+04	   1.3202762e-03	
   2.8550288e+04	   1.3228483e-03	
   2.8563290e+04	   1.3258945e-03	
   2.8576291e+04	   1.3236385e-03	
   2.8590126e+04	   1.3236156e-03	
   2.8603963e+04	   1.3216997e-03	
   2.8617798e+04	   1.3188128e-03	
   2.8630799e+04	   1.3213098e-03	
   2.8644633e+04	   1.3214289e-03	
   2.8658467e+04	   1.3229409e-03	
   2.8672301e+04	   1.3219529e-03	
   2.8686134e+04	   1.3203088e-03	
   2.8699131e+04	   1.3220207e-03	
   2.8712130e+04	   1.3191756e-03	
   2.8725963e+04	   1.3179195e-03	
   2.8739797e+04	   1.3155165e-03	
   2.8753631e+04	   1.3230335e-03	
   2.8767464e+04	   1.3243695e-03	
   2.8781297e+04	   1.3161324e-03	
   2.8795129e+04	   1.3164073e-03	
   2.8808960e+04	   1.3145811e-03	
   2.8822790e+04	   1.3141369e-03	
   2.8835787e+04	   1.3166347e-03	
   2.8848782e+04	   1.3238035e-03	
   2.8862611e+04	   1.3238322e-03	
   2.8876440e+04	   1.3210489e-03	
   2.8890269e+04	   1.3203326e-03	
   2.8904096e+04	   1.3186363e-03	
   2.8917232e+04	   1.3187047e-03	
   2.8931061e+04	   1.3188385e-03	
   2.8944890e+04	   1.3148322e-03	
   2.8958721e+04	   1.3190300e-03	
   2.8972550e+04	   1.3202027e-03	
   2.8986377e+04	   1.3215914e-03	
   2.9000205e+04	   1.3271070e-03	
   2.9013199e+04	   1.3287327e-03	
   2.9027027e+04	   1.3262324e-03	
   2.9040856e+04	   1.3280491e-03	
   2.9054685e+04	   1.3454598e-03	
   2.9068514e+04	   1.3336386e-03	
